28.5100,28.6100,28.4100,29.5900,262.9600,260.4700,259.8500,264.0300,29.6430
29.2700,29.1000,28.5200,29.3127,266.5200,265.3700,264.1200,267.4900,29.8810
28.8900,29.2400,28.8200,29.9900,267.4700,265.4600,265.3700,269.0000,30.3310
29.1600,28.4300,28.3300,29.4400,267.6600,264.1300,262.4800,267.8700,30.5260
28.6400,28.3200,27.8500,29.1400,263.3700,264.0700,258.6200,265.1613,30.9400
30.1500,28.8200,28.6796,30.2100,269.4600,263.5700,262.6300,271.2200,31.3390
29.6600,29.6500,28.1200,29.6800,265.9200,269.8400,262.4400,269.9700,31.7370
32.1100,30.4000,30.2700,32.1900,278.3700,270.2500,269.9000,278.8500,32.0400
32.9000,32.0500,31.7800,33.4691,280.2800,279.3000,277.5050,280.4000,32.3490
31.0400,31.8100,30.9419,32.4600,273.8100,275.6500,273.4500,276.2800,32.7390
33.4500,30.9900,30.9790,33.4800,273.7100,273.9800,272.4300,275.5500,33.1520
31.3500,33.6000,30.9600,34.1700,269.6000,274.5800,268.3272,274.5800,33.5680
32.1400,31.1900,30.9500,32.3500,266.3400,268.4000,265.6600,268.4000,33.6800
32.4000,32.5700,32.0100,32.8600,265.7800,267.5000,265.3400,267.7500,33.9340
32.0500,32.3100,31.6300,32.5800,263.1800,263.2500,263.0700,264.8234,34.1130
33.2000,32.8000,32.7100,33.3900,265.8600,265.0200,265.0100,267.1500,34.5200
32.4200,32.6800,31.9800,33.2000,265.3600,264.1200,263.1500,267.0000,34.9230
35.8100,33.4900,32.2500,35.9950,273.0500,269.1000,268.0700,273.3800,35.2740
35.8500,35.9500,35.7201,36.7200,271.7900,273.7300,271.2100,274.7500,35.5850
35.0900,35.9400,34.8000,36.1600,268.7800,273.0200,267.0102,273.5400,35.6830
34.9100,35.1500,34.2500,35.6000,274.1600,270.2000,268.4500,274.6100,35.7670
33.6900,34.7200,33.2600,35.3600,273.0900,272.0600,271.2500,275.3250,35.7510
34.2200,33.7300,33.4800,34.5700,277.1900,272.5700,271.9900,277.4600,35.6940
35.9700,34.3600,33.8200,36.1500,279.0300,277.7600,276.1800,279.2400,35.7030
36.8600,36.3800,36.1600,37.9400,280.1100,280.5000,279.2200,281.2200,35.6920
36.7400,36.8300,36.1200,37.3300,277.5600,281.0100,277.0800,281.1000,35.5100
36.1000,36.1900,35.6800,36.5800,273.3200,275.1200,273.2500,275.3000,35.2470
36.8400,36.6000,36.3810,37.1655,272.4400,273.3900,271.3500,274.0100,35.3600
37.0000,36.9300,36.4100,37.6900,274.7500,271.8900,269.5900,275.2300,35.6460
35.4400,36.7800,35.2400,36.8800,271.6000,273.5100,270.3800,273.7300,35.8130
34.8200,34.9900,34.6000,35.8214,270.6500,270.6300,270.1200,273.2300,36.0200
33.6500,34.1500,33.4132,34.4800,263.6700,267.7700,263.1200,268.1200,36.1910
34.6000,33.8200,33.4000,35.1200,268.8000,263.8600,259.8500,270.2500,36.3950
33.8400,34.2500,33.0800,34.9900,265.9200,265.3300,262.2900,271.0000,36.5470
34.5600,34.5600,33.8801,35.1900,267.3800,270.0800,266.2300,271.8100,36.6890
37.1200,34.2000,34.0400,37.3500,273.3300,265.3200,264.7000,273.7600,36.8000
38.8700,37.3200,37.0700,38.9700,270.9500,273.6100,268.6100,274.8700,36.9860
38.7200,39.4600,38.6400,39.7600,277.0000,275.0100,274.4100,277.3600,37.0180
38.9000,38.6000,37.9000,39.1500,277.1300,276.2500,275.4700,279.3000,36.9460
38.6100,38.8500,38.6000,40.6800,279.4000,276.4000,274.9700,280.0700,37.2920
36.3800,36.7000,35.5600,36.7100,280.4400,280.4500,277.5600,281.1500,37.7180
35.4800,36.1900,35.3000,36.2950,276.6000,280.4000,276.0700,280.8200,38.3370
35.4700,35.3400,35.3100,35.8800,275.5500,274.4000,274.3000,277.0400,38.8740
36.3900,35.6700,35.5900,36.5500,276.7700,275.9500,272.3700,277.0900,39.4260
35.8000,35.6700,35.1300,36.2200,277.0800,272.1700,270.3600,278.9000,39.8990
37.3100,36.0600,35.9700,37.4500,286.8300,278.3000,277.8800,286.9100,40.3820
38.4800,37.6400,37.4050,38.7300,287.3900,287.4000,286.7700,288.8600,40.8240
41.0000,38.7400,38.2700,41.0100,287.0500,287.8200,285.5000,288.2200,41.1840
42.6400,42.0600,41.6000,42.6500,289.6900,287.8200,286.2200,290.2700,41.5060
43.3500,43.1100,42.5300,43.7300,291.1800,289.4400,287.6600,291.2400,41.6790
44.7000,42.8900,42.5100,45.4500,292.7400,291.7200,291.3200,293.2100,41.6610
40.9600,41.5600,40.8600,41.8600,291.5600,291.5600,291.1400,292.3550,41.6350
40.7500,40.8600,39.8800,40.9600,292.1100,291.7300,290.9800,292.9300,41.7910
40.5400,40.4000,40.2400,41.3550,289.9900,290.7200,289.9500,291.2800,41.9880
40.3800,40.5000,40.0800,40.8100,290.4100,290.6900,290.1000,291.9100,42.2270
41.3000,40.4800,39.5800,41.3000,290.9100,289.8800,289.4100,292.2400,42.3540
41.6500,41.2400,40.6000,41.9400,291.5300,290.7500,290.4833,291.6500,42.5080
43.0100,41.9600,41.9100,43.6900,291.3400,291.0200,290.3700,291.5000,42.4710
43.3600,43.7900,42.9200,44.0000,293.0900,291.9900,291.8100,293.2200,42.4760
43.3900,42.9300,42.3800,43.5800,292.6400,293.5800,291.2363,293.9400,42.1970
43.0500,42.6300,42.1300,43.1200,290.9700,291.2200,290.8250,291.6900,41.9400
43.4900,43.1200,42.7300,43.8000,289.5800,290.9100,289.5500,291.5800,41.9640
42.5000,42.8300,42.5000,43.5000,290.8200,289.3400,289.0300,290.8600,41.9880
41.8100,42.7900,41.8100,42.9100,291.0600,290.8800,290.0000,291.2700,42.1720
42.5100,41.7700,41.5600,42.8800,290.3200,290.8300,289.9950,291.0384,42.3300
41.3100,42.0200,40.3200,42.0400,289.0600,289.1200,288.2300,289.8000,42.6660
41.1900,40.8700,40.5662,41.3850,287.3700,289.0500,286.9750,289.5500,42.8890
42.0900,42.0100,41.6400,42.6900,288.7400,288.1000,287.8800,289.0400,43.1890
40.5000,41.0000,40.1000,41.8223,286.9800,287.6000,286.7100,288.7000,43.3320
42.9000,40.3600,40.1200,42.9300,289.1500,288.1600,287.0000,289.4900,43.4340
43.1700,42.8700,41.6300,43.2263,289.4100,289.0300,287.8900,289.6400,43.7200
43.8800,43.3600,43.1000,43.9190,289.8400,289.8100,288.6800,290.2100,43.7360
44.1000,44.6700,44.0400,45.0400,289.8400,290.3100,289.2900,290.8100,43.5830
44.9900,44.3700,44.3050,45.1700,290.9400,290.3000,289.6300,291.3600,43.3190
44.1200,45.1300,44.0400,45.4700,290.1600,291.4800,289.8854,291.7400,43.0270
44.4900,44.2500,44.0000,45.6500,290.3000,289.9200,289.4000,290.4175,42.6020
43.4100,43.8700,43.4100,44.3500,288.8600,289.7800,288.6800,289.9000,42.5900
42.7100,43.4400,42.1800,43.5300,286.4400,287.5100,286.3800,287.6700,42.6480
42.5000,42.0200,41.8900,42.7300,285.9700,285.7900,285.4300,286.9400,42.8020
43.2000,43.2200,43.1200,43.7900,285.8800,286.1700,285.5750,286.7600,42.8990
41.8800,43.0300,41.8800,43.2200,286.2500,286.3400,285.7135,287.3100,42.9470
42.5700,41.8300,41.7100,42.8700,285.5700,285.6700,285.0600,285.9700,42.8410
41.4200,42.0300,41.0900,42.2400,283.8300,285.0600,283.3700,285.5601,42.9300
41.2500,41.4500,41.2500,42.2400,283.4000,284.0600,283.3600,285.0400,42.9990
43.1800,40.8800,40.6900,43.3700,282.3800,281.7800,280.1600,282.5400,43.1020
44.3600,44.1300,43.7600,44.5599,282.9200,283.9000,282.4833,284.1700,43.2180
44.9500,44.4500,44.0100,44.9500,283.4700,282.1000,281.7700,284.1600,43.1320
42.4500,44.9800,42.0500,45.1700,283.4500,283.1600,282.3600,284.0550,42.9450
44.2700,42.9900,42.8100,44.4000,285.5300,285.0700,284.9150,285.9700,42.7690
42.0000,43.7000,41.9450,44.3200,285.3900,285.4600,284.9400,285.9100,42.7520
43.2100,41.9700,41.9000,43.4000,285.3900,285.5800,285.2400,286.0100,42.6930
42.5300,42.7200,42.2100,42.9800,283.6400,284.6400,283.2015,284.9900,42.7450
42.5400,42.7200,42.3100,43.3000,282.5300,283.6000,282.3300,283.6577,42.6060
41.6300,42.4800,41.4600,42.7500,279.3900,282.3900,279.1600,282.5800,42.3660
43.0100,42.0400,41.9000,43.0100,281.5600,280.8600,280.1315,282.1300,42.2740
42.6800,43.2700,42.6552,43.6100,280.8100,281.3300,280.3800,282.0200,42.8660
43.3800,42.5800,42.3200,43.6800,281.5100,279.9500,279.3600,281.6900,43.3410
42.8600,43.2200,42.3633,43.4800,283.7100,281.4200,280.3800,283.8200,43.8240
42.7000,42.8200,42.0500,43.4600,283.2000,283.3400,283.0900,284.1100,44.2280
42.1000,43.1100,41.6450,43.2450,281.3300,284.0100,281.2800,284.3700,44.6860
42.3500,42.4900,42.0000,43.1000,281.7900,281.6100,280.6300,282.5600,45.1810
40.8600,41.3300,40.0800,41.8200,279.4500,280.2000,279.0600,280.4300,45.7210
41.5300,40.3200,40.0300,41.5500,279.7700,279.6800,279.5000,280.4800,46.4170
45.7500,41.5600,41.0249,46.3000,280.3100,280.0000,279.4600,280.7400,47.0990
47.9800,47.9600,47.3200,48.7500,280.5600,281.0600,280.0600,281.1800,47.6310
47.4000,48.0200,47.3950,48.2900,278.4700,280.4700,278.4100,280.9100,47.4150
47.5400,47.4100,46.7600,48.0800,279.6400,279.3400,278.8400,279.8030,47.2010
47.6800,47.2600,47.0200,47.8500,279.1700,279.5900,278.6600,279.9300,47.1480
48.1000,47.4000,47.1500,48.2873,278.2800,279.3700,277.6000,279.4300,47.0690
46.9100,48.0600,46.5900,48.3000,277.1500,276.8600,276.5200,278.0400,46.9030
48.0500,47.8900,47.5179,48.8700,278.4100,278.9000,278.0800,279.0100,46.6770
47.9400,48.2900,47.5700,48.5600,276.5500,277.9000,276.5000,277.9600,46.3140
46.4900,47.1400,46.0200,47.2450,273.1400,275.4200,272.7150,275.8400,46.0410
46.2600,46.8800,46.1700,47.5000,272.1700,273.1100,270.9600,273.1800,45.8080
46.3400,45.8000,45.5100,46.9000,272.8700,270.9000,270.4200,272.9800,45.6470
46.4600,45.8800,45.4900,47.2900,269.5100,271.8600,269.2400,272.0400,45.5140
46.1900,46.8800,46.0875,47.3200,272.1200,271.2800,271.1495,273.6600,45.5040
45.2300,46.4700,45.0738,46.6800,269.2900,270.8900,268.4900,271.7500,45.3500
45.6800,45.7400,45.4700,47.0500,272.2600,269.3500,269.1800,273.8650,45.4870
44.5100,45.8000,44.0800,45.9600,271.6400,271.6000,270.7900,272.5600,45.7480
45.1300,44.2600,43.5900,45.1300,273.4400,271.0000,269.1000,273.6162,46.0970
45.4500,45.5600,45.2600,45.7800,275.6600,274.7400,274.4900,275.7850,46.6630
45.0100,44.8100,44.5700,45.4290,275.9600,274.2400,273.6800,275.9800,46.9590
44.8800,45.2700,44.3300,45.4300,276.2700,275.9700,275.5900,276.7200,47.3970
44.6300,44.4700,43.3500,44.6300,274.0000,275.5000,273.5300,275.7500,47.8830
45.0100,45.7800,45.0000,45.8700,275.4900,276.5600,274.9500,276.7000,48.3810
47.4000,45.3400,45.0300,47.4000,276.6000,277.1300,275.3500,277.5100,48.6490
48.4400,47.8400,47.6400,48.6450,279.0100,278.7300,278.0599,279.3300,48.8790
49.3400,48.3500,48.2800,49.4900,279.1900,278.0300,277.8000,279.4800,48.9020
49.9800,49.2900,49.1100,50.1300,279.0300,278.9200,278.1900,279.3300,48.9210
48.5000,49.9200,48.1800,50.5900,278.4400,278.5600,278.3100,279.3700,48.7220
49.0100,48.5200,48.4400,49.4900,276.8500,278.1900,276.6600,278.2500,48.5230
50.0400,49.1900,48.5422,50.1200,277.9500,277.3700,276.3400,278.2800,48.5860
49.8900,50.1300,49.1700,50.1900,275.7900,277.4000,275.0900,277.5200,48.5240
48.6200,49.4500,48.4200,49.5000,275.0500,275.1000,274.1800,275.5300,48.4800
48.1300,48.4600,48.1300,48.8200,274.5300,274.9000,274.2600,275.1850,48.5720
48.3900,47.6400,47.4700,48.6200,272.4100,273.6000,272.3300,273.9400,48.8090
49.9800,48.0700,47.8100,50.4300,272.1500,270.9400,270.2550,272.4900,49.1160
48.1100,48.5400,47.5000,48.6600,270.5000,272.6100,270.4200,273.1100,49.3280
47.5700,47.3000,46.8200,47.9500,270.3100,269.0200,267.7600,271.1700,49.5280
48.7400,47.9300,47.6600,48.8250,272.1500,272.1500,271.5800,272.8600,50.0310
48.6200,49.1500,48.5500,49.4400,272.9100,272.8000,270.7800,273.2200,50.6340
49.2600,48.5700,48.3100,49.3800,271.1700,273.3600,270.9900,273.3900,51.0980
50.6800,49.6900,49.6000,50.9000,273.9600,272.6100,272.2400,274.2500,51.5900
51.2000,50.3700,50.1500,51.2000,273.0100,273.3700,271.3512,273.9800,51.9970
50.5300,50.8300,50.3500,51.0500,271.6200,271.3300,270.9300,272.0300,52.4150
49.8300,50.7100,49.8300,51.0900,271.9400,272.0100,271.1300,273.2300,52.7710
50.5400,50.1900,49.5400,50.6750,271.1400,272.2400,271.1100,272.7600,53.0280
51.7900,50.5400,50.4000,51.9500,271.5900,271.1000,270.0300,271.6100,53.3160
54.3800,52.3300,51.9200,54.5150,273.3400,272.9800,272.3600,274.0800,53.4610
53.7900,53.9600,53.3700,54.2500,272.1600,272.8500,271.5800,273.1500,53.3480
53.4000,53.7900,53.0900,54.0100,270.3400,272.0200,270.2200,272.3900,53.1120
53.7200,53.4900,53.1800,54.1300,267.6800,269.5000,267.0900,269.8650,53.0270
54.2600,53.7600,53.4400,54.6500,266.5000,266.9200,265.1500,267.3250,52.8730
54.8000,54.5500,54.3200,55.3800,266.8900,266.9200,266.1100,268.0200,52.5790
53.0400,54.3900,52.6500,54.4600,261.5200,266.0200,261.1500,266.7892,52.3140
52.8300,53.2800,52.6342,53.7600,262.2600,262.6200,259.0500,263.3600,52.8760
52.4500,53.0700,52.2100,53.5000,264.7600,263.2000,262.7600,265.6800,53.5710
51.0400,51.9900,50.1100,52.4300,263.8700,264.9800,262.1100,265.1000,54.2040
51.4000,51.2000,51.0500,51.8698,267.2600,264.5100,264.4300,267.8900,54.7130
52.5600,51.6000,51.1000,52.9900,267.0000,266.5600,265.5000,267.3400,55.0960
54.2500,52.9400,52.4005,55.0800,264.7900,266.3100,264.2900,267.2452,55.4320
50.5900,51.9500,49.9700,52.4300,262.9100,263.6300,260.8500,264.1300,55.5850
51.4700,50.8200,49.9000,52.2000,267.7300,262.9800,261.2800,267.9762,55.7870
54.5600,51.9000,51.5000,54.9100,267.2600,266.5700,265.3500,267.8900,56.1130
59.8200,60.0100,57.4900,60.1400,268.8100,266.6100,265.6100,269.0600,55.9850
60.5400,60.2300,59.5600,62.3500,269.6500,268.8900,267.7200,269.8800,54.7890
58.2600,59.4000,57.2500,60.2800,270.6900,270.3900,269.8700,271.3000,53.5270
55.3700,57.0800,54.7600,57.4875,269.3300,270.1900,268.7500,270.8700,52.2790
55.5500,55.0300,54.4050,56.5000,267.0000,267.3300,266.0700,268.2000,51.1060
54.9500,54.9600,54.2700,55.3800,267.4100,265.1500,264.0100,267.5400,50.0370
53.7000,54.4700,53.1700,55.3323,265.2600,265.9300,265.0600,267.0000,49.0370
53.8000,53.9700,52.6500,54.8900,263.4700,263.7600,263.3900,265.6400,48.0320
51.8000,54.0800,51.6500,55.1800,264.2700,265.1500,262.9800,266.0400,47.1250
49.7800,50.6200,49.3200,52.0200,261.3700,261.0000,259.9356,264.8400,46.2940
47.1800,48.0500,47.1000,48.7400,263.4200,259.7200,258.0000,265.1100,45.7030
47.2000,47.6100,47.1500,48.7300,265.5500,265.6400,264.3200,266.6400,45.3900
44.4000,46.9200,44.2100,47.0700,256.7500,263.5600,256.6000,264.3550,45.4240
44.6300,45.3500,44.6300,45.9000,258.8700,260.7700,256.8400,261.3100,45.3790
44.8600,44.3400,43.8000,46.1200,262.5500,257.4700,254.6700,263.1300,45.4800
44.7400,44.9600,44.5000,45.6629,261.1200,263.1500,259.8389,265.2600,45.7690
44.5100,44.4200,43.6864,44.9200,260.7500,259.8300,258.5800,262.6400,45.9660
46.2500,44.9000,44.6350,46.4900,266.1700,260.6000,258.8400,266.7700,46.1810
45.2600,45.7700,44.2698,46.5300,262.1300,265.1100,259.4100,265.4300,46.5500
45.1700,44.7100,44.6000,46.0000,264.1700,258.0500,257.8300,265.0200,46.8090
47.4000,44.9200,44.8600,48.0890,267.9100,263.6700,263.3600,268.8700,47.1240
46.4200,47.9500,46.3100,48.0615,270.9000,270.4300,270.1900,273.2700,47.3790
46.3700,46.4700,46.0500,47.0600,270.9400,270.9500,270.1800,271.6700,47.3720
47.0300,46.3600,45.7600,47.6800,273.3500,270.4900,268.6200,274.3957,47.4240
46.8000,47.2300,46.7400,47.9186,274.5000,274.2000,274.1400,275.3900,47.3530
46.4500,46.9300,45.7100,47.1300,275.8800,275.0000,274.4300,276.6100,47.1840
49.0900,46.5700,46.2100,49.4300,277.8100,275.3000,274.6700,278.0200,46.9980
48.4300,48.5900,48.4300,49.8500,279.8400,276.7200,276.0300,280.4100,46.8380
48.0100,48.3600,47.9100,48.6799,279.2000,278.5200,278.0801,279.9100,46.6010
48.0500,47.8600,47.2300,48.5900,275.7000,278.8700,275.3400,278.8700,46.4330
47.8800,47.4700,46.5450,48.7300,273.5500,274.1000,272.4200,274.2400,46.3170
46.6000,47.8800,46.4006,48.2600,270.4200,272.7800,270.2000,273.1800,46.3710
46.1900,46.9900,46.0300,47.5200,273.3000,272.8800,271.1800,273.3900,46.3380
45.1800,45.6500,44.8500,46.4600,267.7300,272.1900,267.6100,272.8900,46.4460
44.7200,45.5400,44.1400,46.1800,265.8000,269.0800,264.8200,269.7200,46.6170
45.9300,45.0700,44.5800,46.4400,271.4100,267.7000,266.0000,273.1700,46.8200
46.2500,44.9700,44.9400,46.8400,275.6800,271.6500,271.2900,276.1900,47.1670
46.5000,46.2200,45.6570,47.1700,278.1100,274.4300,274.3600,278.9200,47.4000
47.4200,46.6800,46.1400,47.5800,275.9300,277.9000,275.2600,278.0100,47.4430
48.0600,46.7000,46.5841,48.1400,271.7900,274.7100,271.2500,274.7100,47.3670
48.0100,48.0100,46.8300,48.4000,271.1000,270.4000,269.6400,273.0500,47.2950
48.2100,47.5500,47.2300,48.9500,271.9000,270.0500,269.9400,274.7200,47.2640
46.8400,48.0700,46.7600,48.7399,272.0300,271.4000,270.5000,273.6700,47.4520
47.5000,47.3600,46.5200,50.1800,272.3200,273.1100,272.2700,275.3200,47.4910
48.9900,47.5700,46.1901,48.9900,271.5700,273.0300,268.7700,273.0400,47.6640
46.7100,48.5400,46.5200,48.6500,264.3100,269.5900,264.3000,270.0000,48.1490
46.3900,47.3000,46.1200,47.9800,263.9700,266.0000,263.3100,266.6200,48.4970
46.0500,46.6500,45.7700,47.1300,263.8300,265.3400,261.6644,267.0100,49.0190
46.5400,45.9200,44.1500,47.0600,260.8000,261.5000,252.9200,263.6100,49.8030
47.8100,45.9800,45.5300,48.2400,268.0100,257.6300,257.5900,268.1700,50.6110
49.2300,47.7000,47.6700,49.4200,268.5000,267.6700,267.5800,272.3600,51.3240
47.4400,49.4300,47.2800,50.2000,259.9400,269.1300,258.7000,269.7000,51.8840
48.6100,48.4600,47.8000,50.7500,273.4500,263.9300,263.3100,275.8500,52.1900
52.0000,49.0900,49.0000,52.0000,280.0800,275.4500,275.4100,280.2300,52.6380
51.4100,52.4200,51.2700,52.5000,281.0700,281.5800,280.6800,283.0600,53.0390
52.7500,52.0200,51.2500,53.3600,282.7300,281.9000,280.6800,283.3000,53.0970
53.6700,52.5200,52.5200,53.9700,282.6000,281.7600,281.2200,284.7360,53.5940
53.8900,54.4900,53.5200,54.6299,285.9300,284.6800,284.5000,286.4300,53.9660
53.5500,54.0000,53.2800,54.4000,284.2500,286.5800,283.9600,286.6285,54.1930
53.7400,53.1100,52.7200,53.8900,284.1600,283.3000,282.4050,284.2700,54.4840
52.9000,53.3000,52.3900,53.8525,284.0200,283.1800,281.8400,284.7000,54.7900
52.3400,52.4900,51.7300,52.9000,282.7400,283.2900,282.3700,283.6200,54.8800
52.8000,52.9400,52.2610,53.9000,280.1700,282.6900,280.1100,282.6900,55.1310
52.8600,53.1000,52.5500,53.6800,279.8000,280.4100,279.1400,280.4100,55.2460
53.6700,53.0000,51.7200,53.8700,279.4800,279.1400,278.5800,279.9600,55.4060
56.0300,56.9900,55.5800,57.0399,278.0300,279.6100,276.9700,280.0500,55.5560
56.0900,56.2400,55.4600,57.0400,279.3500,276.9700,276.1800,280.0900,55.3740
57.0500,56.7600,56.1100,57.5000,276.4200,277.9200,276.0819,278.1100,55.1370
56.6000,56.9100,55.8700,57.1300,274.7500,276.1200,274.5600,276.1200,54.8750
54.3700,56.1700,54.2300,56.2600,273.6800,274.1200,272.9200,274.4200,54.3680
55.0000,54.2000,54.0000,55.0800,274.4000,274.5400,274.0810,275.2500,53.7890
53.9600,55.0000,53.6600,56.1500,273.3100,273.9200,272.9800,274.1000,53.3680
54.6500,54.0900,53.4100,54.6600,272.5100,273.4200,271.9500,273.5600,52.7670
54.8100,54.7000,54.0750,55.4300,271.2000,271.6100,270.5447,272.1600,52.2840
54.9200,54.5000,52.9600,55.1500,268.9600,270.4700,268.9600,270.6400,51.4660
54.0600,55.1700,53.9100,55.2200,267.8400,268.7700,267.4000,268.8100,50.4730
54.0000,53.8700,53.5200,54.6100,268.5300,266.8600,266.6400,268.5500,49.2170
52.0500,54.1400,52.0210,54.2000,267.8900,267.8700,267.4500,267.9200,48.0650
50.5500,51.8400,50.2000,51.9300,267.3800,267.3200,267.0100,267.7300,46.8370
49.9800,50.3800,49.2100,50.5000,267.0500,267.1900,266.8850,267.4377,45.8930
49.1500,49.9900,48.8100,50.0400,267.6100,267.5100,266.9000,267.6350,45.0790
49.5700,48.9900,48.7700,49.6800,267.6700,267.5800,267.3000,268.3850,44.2200
48.1910,49.2600,47.6287,49.6700,268.2600,267.0300,266.6900,268.3300,43.3810
44.7700,46.5200,44.6600,46.5400,268.4850,267.1700,267.0900,268.5300,42.5860
42.7750,44.5700,42.7600,44.6900,268.0600,268.2000,267.9800,268.6000,42.0520
42.8500,42.6100,42.2800,43.1400,265.5000,266.5100,265.3900,267.0400,41.7740
42.0500,42.3500,41.9600,42.3750,267.0800,265.6600,265.6000,267.2200,41.6770
42.4500,41.8600,41.7150,42.5700,267.0600,266.7500,266.6500,267.5600,41.5930
42.3900,42.4000,42.1850,42.8800,266.5700,266.7800,266.3450,267.3200,41.5310
41.5400,42.2400,41.5400,42.9800,265.5800,266.3100,265.4793,266.3800,41.6210
41.0000,41.4000,40.9000,41.7700,264.9900,265.5100,264.0315,265.5200,41.6010
41.1300,40.6000,40.2700,41.1900,263.0900,264.0700,262.9400,264.4300,41.6820
40.8000,41.3100,40.3000,41.4900,262.8700,263.2400,262.7100,263.7300,41.8860
41.3700,41.1800,40.9500,41.8600,264.4300,263.1900,263.0400,265.1500,41.8940
41.8700,41.7900,41.5000,42.6000,266.3100,264.1400,264.0800,266.8000,41.9970
41.8200,41.6400,40.5210,42.3000,264.7600,264.4600,260.7600,265.3100,42.1580
41.5000,41.5100,41.1300,42.1600,263.7600,265.0100,263.6700,266.0500,42.2240
42.1900,41.2400,40.8000,42.3200,263.0200,262.7100,262.2000,263.6300,42.2940
41.8100,43.3000,41.2099,43.7500,260.7600,262.8700,260.6550,262.9000,42.3570
42.1500,42.0400,41.4900,42.4200,260.4100,260.2300,260.0000,260.7500,42.3400
42.8000,42.2100,42.0900,42.9000,260.3200,260.3600,260.1600,260.4800,42.4370
41.8400,42.6400,41.7750,42.6800,260.0000,259.7600,259.5700,260.1500,42.5490
42.7300,41.3900,40.2200,42.7300,259.1800,259.9900,258.2627,260.2000,42.8740
42.2900,42.2100,41.7500,42.5500,258.1400,258.3000,257.8600,258.5250,43.4320
42.0000,43.4000,42.0000,43.6000,258.2200,257.8600,257.7700,258.5882,43.9400
42.6800,42.3000,42.0600,43.0800,257.5200,258.6200,257.4748,259.0400,44.3120
41.2700,42.2100,40.7300,42.3700,256.6200,256.4400,255.6300,257.2200,44.8280
42.9000,41.8700,40.6200,42.9000,257.4100,257.7300,256.5200,257.8500,45.3770
42.7000,43.1300,42.5500,43.8700,257.3100,258.3300,257.2700,258.5900,45.9680
42.9300,43.0100,42.7500,44.4600,257.7300,258.0900,257.3700,258.2926,46.3970
44.7100,43.3300,43.1100,44.7100,257.7300,258.1700,256.3600,258.3900,46.8870
46.7300,45.8900,45.3700,46.7700,258.4700,259.1100,258.1500,259.2200,47.4690
47.1100,46.9700,46.5400,47.2040,258.9700,258.6700,258.0900,259.3500,47.8320
47.2000,47.2900,46.5300,47.6800,258.3000,258.8500,258.2200,259.0000,48.1430
47.2500,47.1200,46.7100,47.4300,257.7700,258.4500,257.3000,258.5000,48.2070
47.6800,47.4600,47.0700,47.7670,257.4100,257.5900,256.1900,257.7500,48.2880
48.9100,47.7000,47.4500,49.2700,258.0400,257.4900,257.0700,258.4300,48.1960
47.1500,47.7800,46.3800,48.0700,257.1800,257.1500,256.8050,257.4400,48.2010
47.7500,47.4200,47.3700,48.3800,257.0700,256.7500,256.4100,257.6000,48.2000
47.8350,47.9100,47.0100,48.2500,256.4700,257.7100,255.6254,257.8900,48.2820
49.5200,49.1500,48.5200,49.7300,255.9900,255.6200,255.4800,256.3000,48.2620
49.7300,49.5200,48.5100,49.8800,256.1800,255.2900,254.0000,256.3100,48.1000
48.1300,50.0800,48.0600,50.3100,256.6000,256.5600,256.1500,256.8300,47.8420
48.0400,47.9300,47.8300,48.5600,257.4800,256.1100,256.0200,257.5100,47.5230
47.1300,47.9300,47.0600,48.1300,256.7000,257.1100,255.7744,257.1400,47.4370
46.5000,46.5400,46.0100,47.7400,254.8300,255.7900,254.3500,255.8300,47.3930
47.3800,47.7500,46.5100,47.8400,255.9000,255.7200,255.5000,255.9500,47.5640
48.6500,47.7700,47.4200,48.7200,255.2300,255.4700,254.9800,255.5200,47.5800
48.0000,48.2400,47.4800,48.9300,255.2100,255.2900,254.8200,255.5100,47.6340
48.3200,47.7100,47.6000,48.6300,255.1400,254.9500,254.6400,255.2700,47.5750
46.9500,47.5300,46.8000,47.7700,254.6600,254.6400,254.3650,255.0600,47.4660
46.7200,46.9400,46.2100,47.0000,254.5100,255.0200,254.3200,255.0200,47.3210
47.2800,46.8900,46.5800,47.4500,254.6000,254.6200,253.9800,255.0500,47.1340
47.6300,47.0700,46.5800,47.7200,254.6300,253.9500,253.6500,254.7000,46.9190
47.8900,47.4900,47.3000,47.8900,254.1500,254.3700,253.8500,254.7008,46.7410
48.0800,48.2500,47.6500,48.7290,253.5400,254.6600,253.1960,254.6800,46.5300
48.2700,47.9100,47.7500,49.3000,252.6900,253.1600,252.5600,253.4400,46.3300
47.9700,48.3100,47.4400,48.3300,252.4600,252.8600,252.2300,252.8900,46.2890
46.4300,47.6500,46.4100,48.0300,251.4900,252.3200,251.2926,252.3200,46.0780
46.4500,46.6200,45.9000,47.0000,250.3400,251.2300,250.1300,251.3200,45.8040
45.0700,46.0800,44.8100,46.4600,249.7300,250.3500,249.6300,250.4400,45.6070
45.2800,45.0700,44.4800,45.5600,249.8800,250.0500,248.8700,250.4900,45.4790
45.1100,44.7400,44.7200,45.5200,249.4200,249.0800,248.8050,249.7000,45.4630
45.3300,45.2900,44.6200,45.7000,249.1500,248.9300,248.0800,249.5532,45.4890
45.3100,45.3800,44.6700,45.7800,249.0500,249.4400,249.0200,249.6300,45.3200
47.1100,46.2500,45.9700,47.2500,249.8800,249.3900,249.1850,249.9800,45.0430
46.9800,47.5000,46.5300,47.9500,250.0700,250.0600,248.9200,250.1900,44.8910
45.2200,46.2000,44.8600,46.4400,250.0000,249.9700,249.6000,250.0700,44.5840
44.8000,44.9100,44.6600,45.0900,249.6100,249.7200,249.2800,250.1200,44.4060
44.7600,44.6500,44.2200,45.0900,248.6900,249.1900,248.5700,249.2900,44.4190
44.4800,44.8000,43.7500,45.0000,249.8000,250.0900,249.6000,250.3200,44.3420
44.6100,44.9100,44.3600,45.0700,249.7200,250.1700,249.5900,250.2100,44.1710
44.5900,45.0000,44.3300,45.2000,249.6300,250.0500,249.4200,250.0900,43.9800
43.2500,43.6000,43.1300,44.4900,248.0400,249.2100,248.0200,249.3000,43.6970
44.3700,42.6100,42.2400,44.3700,246.5400,246.5800,246.3000,247.1100,43.4580
44.1600,44.7300,44.0400,44.9000,247.2500,246.8700,246.4000,247.2700,43.3310
44.4000,44.4300,43.3000,44.5000,246.8400,246.9000,246.2300,247.2800,42.9640
45.0800,44.4200,43.7000,45.1200,247.2600,246.0600,244.9500,247.5200,42.4980
44.2100,45.0400,44.1300,45.2200,247.9200,247.8400,247.6700,248.3300,41.9030
43.6700,43.8800,43.1800,44.0000,246.7200,247.4900,246.0473,247.7700,41.1750
43.2300,43.0900,42.9910,44.1000,244.8300,246.0100,244.6200,246.3200,40.5670
41.6600,43.0000,41.3800,43.1800,243.0600,244.8500,242.9300,245.1500,40.1810
41.4300,42.1700,41.0500,42.2600,245.1700,244.5700,244.0900,245.2000,39.6310
41.6800,41.2100,40.8400,41.8000,244.9000,244.5600,244.3900,245.6100,39.1330
40.8800,41.3400,40.5600,41.5500,245.0000,243.9900,243.7500,245.1800,38.7900
39.5600,41.0600,39.4500,41.4400,244.3300,244.5600,244.1600,245.0500,38.4340
38.7400,39.7700,38.7300,40.1300,243.5700,245.4400,243.5500,245.6200,38.1900
38.1900,38.4700,38.0500,38.6600,242.6400,242.9000,241.8300,243.2000,38.1710
37.8800,37.7600,37.3400,38.2100,242.9000,242.7100,242.2000,244.1890,38.1230
39.0000,37.8000,37.7500,39.0000,246.2400,243.0900,243.0900,246.6000,38.0890
37.9600,39.2300,37.9100,39.3300,247.1100,246.9400,246.4500,247.5700,38.0180
37.3000,37.5000,37.1400,37.9800,246.9800,246.5100,246.1600,247.0000,37.8230
38.1100,37.1900,37.1250,38.1580,245.5900,246.5400,245.5500,246.7900,37.7110
37.2100,37.7800,36.9300,37.9100,244.0200,244.1200,243.7500,244.8000,37.6320
38.1200,37.7800,37.7150,38.7800,246.2900,243.7600,243.7000,246.4400,37.4180
39.2100,38.6200,38.4000,39.4500,246.4700,247.2500,246.0600,247.3100,37.2760
38.5000,39.5800,38.3600,40.3620,247.5100,247.2600,246.8300,248.9100,37.0770
38.0000,37.9900,37.6100,38.4700,247.4900,247.8700,247.3700,247.8700,36.8490
37.3400,37.4200,36.7300,37.5000,247.5200,247.4100,246.9700,247.7900,36.7190
37.2800,37.0900,36.9400,37.6000,247.3100,246.9600,246.6400,247.3400,36.6390
36.2700,37.2800,36.2000,37.3300,247.4700,247.4400,246.3700,247.6000,36.6020
36.4600,36.3800,35.9100,36.7400,247.4600,247.3200,246.7160,247.5000,36.5240
35.9700,36.4000,35.6650,36.4400,247.3700,246.7700,246.5300,247.4800,36.5290
36.1700,35.6400,35.5400,36.3200,246.6500,246.9100,246.1300,247.0600,36.5290
36.8400,36.3600,36.0850,37.0700,247.9600,247.2000,245.6800,248.0000,36.5970
37.4200,36.6300,36.5600,37.6100,247.7500,247.4300,247.1300,247.7900,36.5620
37.0700,37.3000,36.8650,37.3800,247.6800,247.4200,247.1600,247.8000,36.3590
36.5900,36.6900,36.5100,36.8800,246.7900,246.8200,246.2800,246.9800,36.1290
36.5500,36.6200,36.5060,36.8590,246.4400,246.8800,246.1800,246.9100,35.8740
35.9500,36.7200,35.9500,37.3100,247.2800,247.1000,246.4700,247.4200,35.6310
36.6100,36.5000,36.0700,36.6200,246.0200,246.9900,246.0100,247.0000,35.3480
36.4000,36.4300,35.8000,36.4800,245.0600,245.6600,244.6700,245.7200,35.0750
36.4400,36.4000,36.2050,36.6900,245.4700,245.5300,245.3300,245.9100,34.8340
36.2000,36.3200,35.9800,36.4400,244.4300,245.5600,244.3100,245.9700,34.4590
35.4500,36.0100,35.4300,36.3800,244.0200,244.4200,243.7600,244.5500,34.1450
35.2500,34.6000,34.4400,35.4700,243.3000,244.0100,243.3000,244.2000,33.8390
34.2200,35.0000,33.9900,35.0800,242.1600,242.1900,240.8500,242.5500,33.5420
33.9100,34.1400,33.6800,34.4500,241.9500,242.3700,241.7600,242.8000,33.1600
34.0000,34.1900,33.2650,34.3700,241.2100,242.1100,240.5645,242.2800,32.8550
33.6100,33.8900,33.6000,35.3800,241.8900,240.5500,240.3400,242.0300,32.4160
34.1700,33.7700,33.5700,34.2550,242.6300,242.7700,241.7000,243.0100,31.9960
32.9400,34.0200,32.9150,34.3000,242.8800,242.2100,242.2100,243.3800,31.6640
33.1600,32.6500,32.5350,33.4500,242.2800,241.8000,241.5750,242.7100,31.3510
33.1100,33.1800,32.6100,33.3400,243.6600,241.3500,239.9550,243.7200,31.0860
32.1000,32.9500,31.9300,33.0000,242.5000,243.4900,242.2300,243.7150,30.8420
31.6000,31.6300,31.4900,32.5000,243.0400,241.3300,241.3100,243.3800,30.7010
31.1900,31.1800,30.6500,31.2950,243.9000,243.2900,243.0450,244.3800,30.7860
30.1300,31.0900,29.7900,31.4300,242.9100,243.1300,242.4700,243.5100,30.8460
29.8100,29.8000,29.6600,30.2500,242.9600,242.8400,242.6400,243.5300,31.0380
30.5900,29.6900,29.6350,30.5900,243.4200,242.9500,242.4100,243.5900,31.4080
30.6900,30.4500,30.4100,31.0950,244.2500,243.0100,242.9900,244.2600,31.7210
30.3700,30.8900,30.1600,31.3000,243.5900,244.6600,243.4800,244.7300,31.9700
30.8000,30.0000,29.5500,30.8630,242.7700,242.6400,241.6337,242.8300,32.2130
31.1200,30.7400,30.6100,31.4500,242.6800,243.7700,242.3600,243.9100,32.4990
32.5700,31.5400,31.2100,32.6800,244.8600,244.2400,243.2900,244.8700,32.7190
31.9700,32.4800,31.5500,32.5480,243.9800,244.5500,243.5799,244.6100,32.8590
32.8200,31.7800,31.7800,33.2100,243.1300,243.3600,242.3800,243.4200,32.9100
33.6400,33.0100,32.8500,34.0000,244.0900,243.4100,241.9500,245.0100,33.0590
32.6000,33.5000,32.5900,33.6500,243.7700,243.7800,243.1700,244.3300,33.0670
33.1500,32.8200,32.4000,33.1700,243.6000,243.6600,242.8300,243.9200,33.0680
33.1100,32.9400,32.7800,33.4900,243.3400,243.2100,243.1200,243.9800,33.1120
32.6500,33.3200,32.6500,33.5800,243.9700,243.9900,243.7600,244.3000,33.1140
32.3900,32.8600,32.3500,33.0000,243.4200,244.1700,243.0800,244.3500,33.0110
32.8400,32.9400,32.4500,33.4500,241.9700,243.3600,241.6400,243.3800,32.9170
32.8800,32.9400,31.7600,33.0500,241.8400,241.4400,240.6400,241.8800,32.7860
33.0300,32.9900,32.5300,33.1600,241.3400,241.5000,241.1600,241.7900,32.7080
32.8700,33.2700,32.8700,33.3600,241.5400,241.7100,241.4500,241.9000,32.6120
33.6800,33.0900,33.0300,34.0900,241.2000,241.7600,240.9600,242.0800,32.4640
33.2700,33.5100,33.0450,33.9200,240.3200,240.6100,239.9300,240.7300,32.2710
32.9800,33.2600,32.5600,33.3600,239.9500,240.0500,239.5100,240.2400,32.0280
32.6500,32.9600,32.4700,33.2000,238.9000,239.5200,238.8200,239.7100,31.7840
32.1600,32.2900,32.1000,32.8800,237.3300,238.3100,237.2700,239.0800,31.5900
31.4500,31.9200,31.1000,32.1700,235.7300,236.7700,235.4300,237.7500,31.5430
31.8800,31.6300,31.5800,32.2200,238.1000,235.8200,235.7500,238.6400,31.4550
32.1000,32.1600,31.7500,32.4000,240.6400,240.0800,239.6300,240.6700,31.4610
32.1700,32.0300,31.9700,32.5000,239.4700,240.3000,239.4500,240.4400,31.5780
31.0000,31.7900,30.9600,32.1300,239.0900,238.9800,238.6700,239.4273,31.7030
31.2300,31.1600,30.4500,31.3100,239.3500,239.3800,238.1300,239.5700,31.8970
30.9500,31.0800,30.7000,31.4600,239.3900,239.8700,239.1500,239.8700,32.2330
31.2200,30.8200,30.4600,31.2400,239.9600,239.4400,239.0400,240.1900,32.7700
31.3700,31.0200,30.6600,31.3700,239.7500,239.6600,239.1700,239.9200,33.3370
31.3500,31.8200,31.0500,31.9600,239.1900,239.7000,238.6800,239.7200,33.5660
31.2200,31.0400,30.4200,31.3600,238.8300,238.7600,237.7800,238.9225,33.5540
32.9000,31.6900,31.5100,32.9000,238.2900,238.4800,237.7000,238.8775,33.6540
33.3100,33.3300,33.3000,34.3300,238.8400,238.7700,238.3000,238.9800,33.6150
33.9500,33.2800,32.9000,34.1300,238.6800,238.6800,238.1950,239.1700,33.4580
34.8100,33.7300,33.6800,34.9450,238.9000,238.0800,237.9300,238.9300,33.2610
35.7500,34.5200,34.1550,35.9000,238.7700,238.6000,237.9800,238.9500,32.9870
36.0000,36.4500,35.8500,37.2000,238.5100,238.4000,238.3500,239.5300,32.7400
34.2300,36.4900,34.2300,36.5500,237.9100,238.5500,237.8100,238.9500,32.5340
32.2400,33.3100,32.1500,33.4400,237.1800,237.1700,234.5628,237.4100,32.2510
32.2000,31.7000,31.6500,32.5500,235.2500,234.5900,234.1300,235.3100,32.2930
31.8900,32.0400,31.4600,32.3000,234.1500,235.3400,233.7800,235.8450,32.4880
32.1800,31.3000,31.2800,32.4400,234.5200,233.4400,233.1800,234.9500,32.6690
30.7800,31.7600,30.4500,32.3700,233.7200,233.8700,233.0800,234.4900,32.9620
31.1700,31.3100,30.9700,31.7900,233.1100,234.5700,232.8800,234.5700,33.2080
32.1100,30.9900,30.9900,32.4700,233.6400,232.5100,232.5100,234.4900,33.5170
33.8600,32.0500,32.0300,34.2900,234.7400,234.0300,233.7700,234.9600,33.7670
33.5700,34.3900,33.1500,34.4600,234.9000,235.0600,233.3400,235.1800,33.8530
33.6600,33.6600,33.2000,33.7800,235.3600,235.3400,234.7300,236.2550,33.7060
33.2500,33.7300,33.1510,34.1300,235.1500,235.2000,234.6400,236.0000,33.5870
33.8500,33.6500,33.1900,34.1600,234.9400,235.4400,234.4250,236.0400,33.4700
34.7900,33.8500,33.7550,35.0900,236.2600,234.7800,234.5400,237.3900,33.4360
34.0300,34.2300,33.8210,34.5000,235.0000,235.4800,234.5550,235.5800,33.4200
34.6200,34.2200,33.5020,35.0000,235.8000,235.3300,233.9100,236.0300,33.3190
34.0600,34.4000,33.6000,34.7400,235.9000,235.7400,235.6800,236.5100,33.3870
33.1500,33.4900,32.9600,35.1400,235.4700,236.2900,235.2700,236.5200,33.4440
32.9100,32.9100,32.7300,33.2900,234.9900,235.5400,234.7250,235.8100,33.6330
32.5000,32.9200,32.4500,33.6370,233.2700,235.3200,233.1400,235.8100,33.8560
31.7400,32.4700,31.2900,32.5700,231.9300,233.6200,231.6100,233.9200,33.9830
33.6100,32.5600,32.3650,33.8600,234.3800,233.8600,232.9600,235.0400,34.2060
33.4100,33.3100,33.1100,33.6900,234.0000,234.0300,233.6000,235.3400,34.4030
33.3500,33.6900,33.0100,34.1500,233.7700,234.2800,233.0500,234.6100,34.6080
34.9000,33.2200,33.1700,35.2500,237.4700,233.7300,233.5800,237.6100,34.8380
34.9000,34.9000,34.1000,35.3600,237.0300,236.7700,236.3200,237.3600,35.0960
35.5700,34.9700,34.9500,35.9800,237.7500,237.0300,237.0300,237.9700,35.2990
35.6600,35.3800,34.9800,35.9900,239.1100,238.4800,238.1000,239.2000,35.4400
34.4000,35.1400,33.9500,35.2900,237.5600,238.9500,237.2900,239.4400,35.4870
34.4500,34.1900,33.7700,34.5800,237.1800,236.9000,236.1900,237.2400,35.7720
35.2100,34.7000,34.5300,35.5200,237.6200,237.8100,237.2400,237.8600,35.8120
35.9000,34.5300,34.2350,36.0000,237.9700,237.6900,236.5900,238.0200,35.8200
36.0700,35.3600,34.8900,36.5500,236.7000,236.8600,235.7400,237.2400,35.8150
35.9000,35.9900,35.9000,36.8200,237.3400,236.5600,236.4000,237.6400,35.7110
36.8100,35.8000,35.7500,36.8900,237.3600,237.0000,236.7600,237.7700,35.7720
36.8000,36.9300,35.8000,37.4800,237.5000,237.7100,237.0100,238.1200,35.8630
36.0600,36.3800,35.7500,36.8900,238.1700,238.4200,237.7300,238.6100,35.7910
37.6400,35.8500,35.8300,38.1700,239.5600,238.2700,238.2100,239.5700,35.7990
35.9300,37.9900,35.8500,38.1500,238.3900,239.7800,238.3700,240.3200,36.0010
34.7300,34.5900,34.4000,35.3300,236.6700,236.4700,236.0150,236.9500,36.0580
34.5200,34.7800,34.1900,35.3800,236.6400,237.1100,236.3500,237.3100,36.4470
33.8100,34.4800,33.3500,34.6400,235.4600,236.7400,235.4100,236.7932,36.7990
36.8600,34.3200,34.2600,36.8800,236.8800,236.4400,235.5600,236.9000,37.0930
36.4000,36.6000,36.2100,36.7100,236.0200,236.2800,235.8300,236.5400,37.4150
36.3100,36.7100,36.2300,37.0100,235.5200,236.4900,235.5100,236.6900,37.5520
36.2400,36.2100,35.7900,36.6100,233.9500,235.0900,233.9300,235.0900,37.6560
37.8200,36.4600,36.3500,37.8300,234.9600,234.7200,233.8500,235.1550,37.7210
38.2500,37.8700,37.7300,38.3000,233.4500,234.9200,233.3900,235.1400,37.8430
38.5700,38.5600,38.1800,39.2500,232.5600,233.7000,232.1600,233.7100,37.6820
38.7900,38.4800,38.4500,39.7800,232.0800,232.7700,232.0500,233.0700,37.4710
37.9200,38.3000,37.5050,38.5400,231.0000,231.5100,230.6216,231.7700,37.2780
37.4100,37.4200,36.9940,37.7500,229.5600,230.6000,229.5200,230.9500,37.1150
37.9300,37.5400,37.1100,38.5000,228.6100,229.2400,228.3100,229.3900,37.0030
38.0400,37.9700,37.3100,38.2500,229.3800,228.9400,228.7200,229.6556,36.9020
36.9000,37.7500,36.8000,38.0000,228.8700,228.9300,228.5400,229.3260,36.8550
37.8700,36.8600,36.8300,38.0500,228.8200,229.3400,228.4600,229.5500,36.7090
36.7000,37.6800,36.6300,38.3700,227.2000,227.7700,226.8200,228.1000,36.5890
36.5800,36.2600,36.2000,37.1900,228.2550,227.6200,226.9400,228.5900,36.3630
36.7800,36.4500,36.0100,37.2300,226.9800,227.5300,226.3200,227.6000,36.2180
36.4800,36.5500,35.7700,36.5900,228.1700,227.5500,226.4100,228.2000,35.8370
36.3000,36.6700,36.2700,37.3900,229.4200,228.9700,228.7600,229.5900,35.4830
36.2200,36.3000,35.5100,37.0699,229.4000,229.3300,229.0100,229.7100,35.1200
38.5800,36.5300,36.3100,38.9400,228.7000,229.5700,228.5100,229.5700,34.6870
37.1800,37.5000,37.1800,38.3800,226.4000,227.6000,226.2700,228.0800,34.1320
35.9200,36.2900,35.4550,36.3950,226.3500,226.1500,225.2700,226.8050,33.3300
35.4000,35.6600,34.9300,35.7400,226.7000,226.7400,225.9719,227.3100,32.7690
34.2200,35.4200,34.1800,35.6300,226.8400,225.9100,225.4100,227.0000,32.2680
32.9500,34.8100,32.6400,34.8300,226.5350,226.7500,225.9000,226.8000,31.7520
32.9700,32.6400,32.5200,33.0400,226.3100,226.2500,225.8000,226.7800,31.1540
32.8200,33.0100,32.5300,33.4300,226.7300,227.0500,226.6900,227.4000,30.6980
33.0000,33.0400,32.5100,33.5000,226.5000,226.5300,224.9550,226.7500,30.2860
31.0800,31.9700,31.0800,32.0000,226.3600,227.1000,225.5900,227.1000,29.9250
29.8300,30.9800,29.7300,31.1000,226.4800,226.4600,226.0100,227.4500,29.6930
30.8800,29.4800,29.2150,30.8800,226.9100,226.4600,226.4163,227.0701,29.5660
30.6900,30.6800,30.3100,31.1000,226.5300,227.2100,225.9000,227.7500,29.5930
30.1800,30.6500,30.1150,30.9300,226.2700,226.4000,225.4800,226.5800,29.5680
29.0200,30.2600,29.0200,30.3000,225.6200,226.5800,225.6100,226.7500,29.5190
28.6000,28.8300,28.1700,28.8700,225.0400,225.2400,223.8837,225.8300,29.4220
28.9700,28.0800,28.0100,29.3779,224.7300,223.5300,222.7300,224.8300,29.4790
29.4300,28.8900,28.6000,29.4400,224.4800,224.3500,223.8400,224.8900,29.6500
29.7800,29.4300,29.3500,30.1700,226.5700,224.4000,224.2700,226.5900,29.8060
29.5800,29.6500,29.4000,30.0400,226.0200,226.2700,226.0000,226.7300,29.8870
29.7900,29.7100,29.3400,30.1300,225.4300,225.7100,225.2100,225.7200,30.0460
30.2100,29.7500,29.5400,30.3500,225.6000,225.3800,224.9200,225.7400,30.2800
30.1900,30.4300,30.0200,30.4300,226.2500,225.7700,225.7700,226.4500,30.4360
29.9000,30.1600,29.7700,30.3300,226.1500,226.4000,225.8800,226.5700,30.4830
28.8900,29.2900,28.7500,29.4900,225.2500,225.5300,225.0800,226.0200,30.5820
29.6500,29.4000,29.1600,30.4200,226.0100,225.0400,224.6700,226.0800,30.7750
30.1600,29.7900,29.6500,30.4400,226.1600,226.8100,225.8904,227.8100,30.7390
30.1100,30.4500,30.0300,31.3200,227.4100,225.8800,225.3650,228.2300,30.6480
31.4000,30.2400,30.0300,31.7300,227.0200,227.7600,227.0000,228.3400,30.5000
32.1600,31.2400,30.8500,32.3500,226.4000,226.2500,225.7600,226.9600,30.4490
31.3100,32.0500,31.0400,32.1100,225.4100,226.5100,225.3700,226.5300,30.4110
31.2800,31.3100,30.8000,31.8400,224.5700,225.1500,224.2600,225.7000,30.3760
31.3000,30.9000,30.7653,31.8900,221.5200,224.6000,221.3800,224.6700,30.3960
30.7100,31.1500,30.2100,31.1900,221.2200,221.7000,220.6620,221.7441,30.4400
29.0300,31.2200,28.8900,31.2768,220.6500,221.0000,220.4200,221.4000,30.3940
28.8600,29.0400,28.7300,29.6250,219.6700,219.6800,219.2600,220.2500,30.3140
28.8400,28.8800,28.6000,29.4200,220.7300,219.5700,219.1500,220.7300,30.5950
30.0600,28.9700,28.8500,30.4400,221.6300,220.3800,220.3100,221.8200,30.8490
30.0200,29.7300,29.7300,30.4999,220.5200,220.9100,220.1700,221.4400,30.9730
31.4800,30.8600,30.7000,31.8000,221.1600,220.4800,220.3600,221.4800,30.9620
31.2400,31.7000,31.1100,32.1900,221.1000,221.5200,221.0100,221.5600,30.8060
31.0000,31.5100,30.0000,31.9300,219.9800,220.7000,219.7500,220.7600,30.5460
31.1000,31.3400,30.5400,31.9100,220.5100,220.5800,219.7300,220.7900,30.2670
30.8900,30.6900,29.5010,30.9800,219.1700,220.1500,219.0000,220.1800,29.7730
31.7300,30.4200,30.1600,31.7700,219.0700,218.5000,218.2900,219.2700,29.2120
31.3000,31.8500,30.7700,32.0200,218.0500,218.9900,217.9200,219.0600,28.6900
29.6900,31.4200,29.6600,31.6900,217.5600,217.8700,217.4200,218.1400,27.9200
28.9400,30.2100,28.8300,30.2300,217.0400,218.2800,216.8000,218.2800,27.0690
29.5000,29.6200,28.6100,29.9400,217.0300,216.5900,215.7200,217.2700,26.3480
29.1800,29.3000,27.6300,29.9900,216.0800,216.4200,215.3200,216.7000,
29.0800,29.1000,28.3000,29.7000,217.3000,216.9200,215.2200,218.3100,
26.8300,28.7200,26.0000,29.1400,212.3700,216.3792,212.3400,217.1000,
24.3000,26.4000,24.3000,26.5900,212.6900,214.1100,212.3800,214.7700,
25.5400,25.0800,24.8900,26.4100,211.4500,213.1500,211.3000,213.1900,
23.8200,25.2000,23.5600,25.5000,208.9100,208.5500,208.3800,209.8900,
22.9600,24.1500,22.9400,24.3493,209.9900,208.7800,208.4600,210.2400,
22.6700,22.9100,22.6358,23.2650,210.6500,209.7400,209.2300,211.1000,
22.1000,23.0000,21.7800,23.5500,212.9300,211.0100,209.6000,212.9900,
212.9300,212.5500,212.3600,213.1900,
213.1400,212.5400,211.7100,213.9300,
214.5800,213.1700,213.0800,214.6200,
213.2100,213.7400,212.9300,214.4200,
214.6800,214.1700,213.9800,214.9800,
215.0000,214.8900,214.4800,215.3200,
212.9600,213.9800,212.7600,214.0800,
213.8700,213.8800,213.1100,214.5300,
214.0200,214.2800,213.6000,214.6400,
214.2400,213.7100,213.2700,214.3100,
213.0900,212.3800,212.1700,213.3900,
214.1500,213.1200,213.0300,214.6900,
212.1600,213.0100,211.2100,213.5900,
213.5900,213.7100,213.0100,214.3200,
215.6600,213.4300,212.5800,215.7400,
216.1550,216.1600,215.9850,216.7000,
216.1000,215.0400,214.1900,216.3000,
215.3700,215.7800,214.7350,216.0400,
215.4100,215.6300,215.3300,216.1300,
215.9100,214.6800,213.9900,216.1700,
215.8200,215.7800,215.0400,216.0400,
215.6500,216.3000,215.3600,217.1200,
216.4000,214.6800,214.0400,216.8700,
215.8300,216.6400,214.7100,216.8200,
214.0500,215.5700,213.6200,215.6800,
215.0200,214.2400,214.0100,215.2300,
216.7200,215.9900,215.8800,216.8800,
217.0000,217.1800,216.7100,217.5300,
214.2400,215.8200,213.4400,216.0300,
214.4100,213.4200,213.3800,214.5900,
214.1300,213.4100,213.0300,214.8800,
213.4800,213.3700,212.5700,213.6900,
212.9600,215.2800,212.7500,215.7300,
213.2900,213.1500,212.5000,214.7000,
214.8400,213.2300,212.5000,215.1499,
212.3900,216.3400,212.3100,216.8100,
216.9700,213.2800,213.2500,217.0300,
218.6200,218.5100,218.1500,218.9400,
218.8400,219.0100,218.3000,219.2200,
218.7000,219.0308,217.8600,219.1200,
218.3900,218.3700,217.7000,218.8700,
217.3700,217.3900,216.0300,217.7300,
217.6100,217.3800,216.4650,217.7500,
218.2600,218.0000,217.3500,218.5900,
217.4400,218.3608,217.4000,218.6650,
217.9200,217.2900,216.2500,219.1200,
217.4000,217.7000,217.2200,218.1900,
218.8000,217.8500,217.3600,218.9100,
219.2500,218.9700,218.9000,219.6000,
218.2600,218.5300,217.8300,218.8000,
218.3100,218.5400,217.7400,218.7500,
218.3400,218.8600,218.2100,218.9000,
218.0000,218.3700,217.0200,218.5300,
218.6000,217.9600,217.9600,218.6800,
218.8900,219.0900,218.8800,219.5000,
218.2900,218.4600,217.9900,218.7100,
218.2600,218.6500,217.9500,218.9400,
218.3100,217.6400,217.2300,218.4038,
218.1300,218.1800,217.8000,218.7600,
218.4000,218.0500,217.7400,218.5200,
217.2100,218.1800,217.0700,218.2300,
216.3100,216.4097,214.2500,216.7800,
215.4800,216.1800,215.1300,216.2450,
216.6500,215.5492,214.5700,216.8300,
217.1900,216.9400,216.4050,217.6500,
216.4600,217.1200,216.1300,217.5400,
216.2900,216.7700,215.7500,217.1100,
217.1900,216.5200,215.6200,217.2700,
216.5300,216.7500,215.7600,217.1700,
217.0000,216.6500,215.9700,217.0600,
216.4100,217.2400,216.1000,217.3000,
216.9600,216.2650,215.7500,217.2200,
216.7500,217.0850,216.2400,217.3700,
215.9200,216.1900,215.6300,216.2300,
215.9700,216.4092,215.6700,216.6000,
216.7800,215.8300,215.3080,217.0125,
216.4000,216.1200,215.6600,216.6700,
215.4400,214.9200,214.3500,215.4500,
214.5300,214.9500,213.4308,215.3000,
213.1900,213.4000,212.9500,214.0700,
211.0500,212.6500,210.7785,212.9400,
209.8700,209.5260,208.6300,210.6495,
207.8300,209.6600,207.0600,209.8000,
208.9500,208.4100,207.7100,209.0800,
209.3600,209.9208,209.2900,210.4900,
207.2100,209.4750,206.5600,209.5400,
204.8400,206.6600,204.7200,206.9300,
201.4800,203.1997,201.1200,203.2300,
201.5900,199.6000,198.6500,201.6000,
203.6300,203.1300,202.7200,210.8463,
209.8100,210.8100,209.2700,210.8700,
208.6500,208.1000,207.9300,209.5000,
208.3000,208.4400,207.7800,208.9200,
208.8200,207.8500,207.7500,209.6100,
207.1700,206.5200,205.7500,207.2000,
206.7300,208.3700,205.5900,208.5700,
208.5400,207.7500,207.5300,209.3600,
208.0000,208.0400,206.9199,208.7400,
209.3600,208.4492,208.3500,210.3700,
210.4600,210.0700,209.4300,210.8600,
211.5100,212.0800,211.1900,212.2200,
211.8400,212.3700,211.6899,212.5200,
211.5250,211.6800,211.5000,212.3400,
210.7000,211.3500,210.5100,211.7700,
210.2500,210.2800,208.8600,210.6900,
209.8000,210.9100,209.2399,210.9300,
209.1200,210.2700,208.8900,210.4800,
210.5600,209.8400,209.1800,210.6900,
209.5300,210.2400,209.4700,210.2500,
209.4400,209.3400,208.9700,209.7100,
208.6700,209.2800,207.8691,209.7700,
206.1700,207.8700,206.1400,208.2400,
205.5100,205.2100,204.9850,205.8400,
204.9200,205.4900,204.8600,206.1000,
204.0600,204.2000,202.7800,204.5400,
204.4400,204.9100,203.6300,206.3000,
206.4600,204.8508,204.2300,206.8000,
204.9600,206.7800,204.8900,207.3400,
206.2100,204.7600,204.3800,206.8600,
207.2900,206.5600,205.3700,207.4899,
207.9100,206.5000,206.5000,208.5400,
206.7200,208.4500,206.6400,208.5000,
205.5700,205.8892,205.3600,206.4000,
204.0600,205.7200,203.8800,205.7700,
205.5600,204.9700,204.4700,205.9800,
204.9900,205.0100,204.4200,205.8500,
206.5200,206.1592,205.2800,206.8000,
206.9200,207.9700,206.4100,208.1800,
206.7200,206.3308,205.0300,207.1300,
208.4600,207.4475,206.9600,209.7600,
208.4700,209.3500,208.0500,209.8100,
209.0400,208.9192,208.3600,209.5200,
208.2600,208.6100,207.5400,208.6600,
208.5500,208.9700,207.9100,209.2900,
210.1200,208.9700,208.6500,210.2500,
209.9500,210.1000,209.3900,210.9200,
209.7400,209.9000,208.9400,210.2000,
207.1400,209.2392,207.0000,209.2800,
208.0100,207.7800,207.4000,208.1721,
208.0700,208.0100,207.6000,208.6000,
207.0000,208.0008,206.8400,208.1000,
204.2200,205.9200,203.7000,206.2500,
205.2500,204.0201,203.9100,206.0700,
205.3400,204.4992,203.8700,205.8500,
205.1400,203.9500,203.0900,205.5600,
204.2900,206.4200,203.9800,206.4900,
204.6700,204.1892,203.8900,206.2642,
206.8300,206.2500,205.8900,207.0700,
204.3500,206.9200,203.9800,207.1400,
205.9100,205.5200,205.3300,206.4100,
206.3000,206.0200,205.5900,206.8700,
202.7600,205.1208,202.4000,205.2500,
203.6100,203.2400,202.7050,203.8600,
202.0000,203.1200,201.7400,203.1600,
204.1100,203.2092,203.0100,204.3300,
203.7600,204.5600,203.5700,205.2300,
204.0700,204.6700,203.8000,204.9400,
204.1700,204.3800,203.8000,204.7800,
203.2400,204.6300,202.7700,205.2300,
201.6000,203.3400,201.5500,203.8200,
201.3600,202.1700,201.0500,202.5307,
202.1600,202.5000,201.7700,203.0400,
201.2600,202.7600,199.5179,202.8100,
199.9600,199.5400,197.3800,201.0700,
199.3600,199.3800,198.4300,199.7900,
199.3200,198.4000,198.2100,199.9200,
199.3400,200.5900,199.2500,201.0700,
200.0100,200.4300,199.0300,201.3500,
198.7900,199.7750,198.1100,199.7950,
197.7400,199.0000,197.2500,199.0600,
195.0100,198.1100,194.4542,198.2100,
195.1100,193.5600,193.3300,196.2300,
196.5700,195.0892,194.9000,196.6800,
193.7300,195.5400,192.8300,195.5500,
190.6300,193.2000,189.3200,193.5300,
194.0000,192.3200,192.1800,194.3200,
193.8700,194.7800,193.7900,194.9500,
191.1700,192.0000,190.4500,192.1800,
193.2000,192.0900,191.7200,193.2700,
191.1600,192.8800,191.0100,193.3200,
188.7700,189.7800,187.6300,189.8100,
184.9600,186.6300,183.9600,186.6500,
182.3400,182.8600,181.0900,184.1000,
186.4100,185.2700,185.1200,188.3400,
183.3600,185.4300,183.2000,186.9400,
185.7700,185.4200,182.8000,186.1200,
190.9900,187.9500,187.2000,191.6696,
190.7100,191.6000,189.9600,192.7500,
191.4100,191.3000,187.1000,191.7800,
191.9600,190.1600,189.5400,191.9700,
192.5300,193.6500,191.8400,194.5800,
190.0200,193.7208,189.8800,193.8800,
189.9600,189.1100,187.1600,190.2000,
189.5800,188.1300,187.0600,191.5600,
188.4200,190.2000,188.0200,190.5300,
189.9200,187.6400,187.4100,190.1500,
189.7800,190.5200,188.8800,190.7600,
186.2100,186.6900,184.6400,188.8700,
185.0300,185.6500,181.0200,187.4950,
189.9600,188.0600,186.2000,190.1100,
186.7700,187.8100,185.5200,188.7600,
189.5500,191.9300,187.6600,193.2600,
194.4500,188.8300,188.3800,194.8600,
193.8200,193.6608,191.1400,194.5500,
193.0100,192.1100,189.8200,193.4100,
195.1900,191.9230,191.5800,195.8500,
195.3300,194.0500,193.5900,197.4400,
198.3400,198.8200,197.6000,200.0600,
201.4000,201.3600,200.0500,201.9000,
200.4900,201.0192,198.5900,201.0300,
205.1300,203.8700,203.8700,205.8900,
207.1100,205.9300,205.7600,207.2100,
206.5100,207.4000,206.4700,207.7900,
204.8600,205.2100,203.9400,205.2600,
205.7200,205.6800,205.4200,206.3300,
204.6900,206.0200,204.5800,206.0700,
202.7150,203.5000,201.5500,203.8500,
201.4100,201.6700,200.0900,201.8800,
202.7700,200.0208,199.8300,202.9300,
208.4000,204.8600,204.8400,208.4800,
206.3650,208.0300,204.8000,208.3900,
204.7000,205.0308,202.8666,206.1100,
202.0700,202.9008,199.9500,203.0500,
203.3500,201.8800,201.5100,204.1400,
205.4200,205.8700,205.1400,207.4300,
206.1900,205.3400,204.1800,208.6800,
206.4900,206.9490,205.7800,208.2890,
209.2300,208.3500,207.2000,209.7295,
206.0800,209.6200,205.9300,209.9700,
208.8300,205.6100,204.7511,209.1500,
210.6150,208.5290,208.2300,211.0000,
209.4400,210.6800,209.1100,210.8200,
209.7500,208.6900,208.5600,209.8900,
209.4300,209.5600,208.8600,209.8000,
209.5000,209.3200,209.0100,209.7400,
207.8700,209.3500,207.4100,209.8300,
209.3800,209.0700,208.5200,209.9800,
209.4500,209.3108,208.8600,210.1200,
208.5900,208.5500,208.2000,209.0500,
206.0400,208.7300,205.9900,208.9000,
205.9900,205.4700,204.8800,207.0400,
202.3200,205.6200,202.1800,205.6900,
204.3500,202.5400,202.4350,204.6700,
206.5000,204.8400,204.8200,207.0600,
208.8800,207.7400,207.6600,208.9400,
207.5100,208.5600,207.1900,208.6000,
209.3100,208.0800,206.9500,209.4900,
209.7400,210.0400,208.4600,210.3200,
210.4300,210.1500,209.0900,210.9800,
211.3500,210.3600,209.7201,211.5000,
209.9700,211.0000,209.7000,211.6600,
208.3200,210.3900,208.1700,210.6200,
209.0600,207.9300,207.7400,209.4400,
208.3500,208.8300,208.2100,209.2700,
207.0000,208.9500,206.2100,208.9800,
206.2000,206.6000,205.7900,207.0000,
207.3000,207.0000,206.5600,207.3700,
207.2500,207.5100,206.3000,207.9500,
202.9800,205.2600,201.8500,205.5100,
203.6100,201.8500,201.6500,203.7900,
202.8500,203.0900,202.5471,203.8400,
202.5000,203.3700,202.1300,203.3700,
202.8300,203.2700,201.9200,203.2900,
200.0800,202.3500,199.6400,202.3600,
200.1800,199.2900,198.9400,200.8700,
200.6500,200.2500,200.0500,202.1600,
201.4200,201.5200,200.9100,201.7600,
201.3800,201.3300,200.5800,201.9000,
198.9500,201.2100,198.5900,201.5500,
198.9000,199.4100,197.4800,199.8250,
198.3100,197.7900,197.0000,198.9800,
196.4600,198.4700,196.3300,198.7400,
189.7700,195.0000,189.1200,195.0300,
192.0800,192.1300,189.8200,192.4900,
190.3700,191.6300,189.4400,191.8250,
188.2700,188.1200,186.9300,189.7400,
191.7800,188.0100,187.6400,191.9100,
194.6400,192.8500,191.8100,195.0000,
192.1500,192.9000,190.5600,193.4500,
194.1100,193.6000,192.9100,194.6700,
193.8800,193.9100,192.5600,194.4600,
196.4400,196.4600,195.2100,197.6800,
195.7100,195.4500,194.9600,198.6844,
200.0200,199.7300,199.2800,202.8900,
198.8200,200.1800,198.4100,200.4100,
196.6100,198.4600,195.9612,198.9900,
196.9500,196.0100,195.4300,197.0100,
195.3750,196.7400,194.5300,196.8200,
194.5600,195.8500,194.2500,197.2200,
199.3200,194.7900,194.3500,199.4700,
195.9400,197.4300,195.1700,197.6100,
192.8500,192.5900,191.6100,193.8600,
196.2600,195.5500,194.9600,198.0500,
194.6900,195.4100,192.4200,195.4600,
193.1200,191.7700,190.7300,194.7700,
198.2000,197.6700,197.0100,199.1250,
198.5000,199.2800,197.9200,199.8350,
197.1000,199.2700,195.2100,199.4200,
192.0800,194.4600,188.3700,194.7900,
195.4300,187.2700,186.9200,195.4500,
187.4900,189.5500,182.4000,197.4772,
201.7300,197.6300,197.5200,203.9404,
206.5100,203.9700,203.9000,208.2865,
209.0900,208.3200,207.3500,210.0100,
210.2600,209.9800,209.6990,210.6800,
208.7100,210.5900,208.1600,210.5900,
208.4300,209.4200,208.2600,209.5087,
208.7300,208.6600,208.0100,209.5500,
207.1100,208.9200,205.3600,209.1400,
208.9700,208.6700,207.7600,209.4700,
209.2800,210.5700,209.2800,210.6700,
208.1600,207.9500,206.8700,208.3400,
210.2900,208.3500,207.6500,210.4150,
210.4500,210.0700,209.7300,211.3100,
209.7000,209.3800,208.8000,210.2483,
210.4600,209.7900,208.6500,210.5300,
211.4200,210.5000,210.1600,211.4500,
210.1600,210.8200,209.4200,211.0200,
209.4800,210.7700,209.3100,211.0400,
207.7900,209.3300,206.8000,209.5000,
206.9400,206.7900,206.2600,207.5500,
210.3000,208.0000,207.6000,210.3700,
211.5300,210.1800,209.7500,211.6500,
210.9300,211.3700,210.8900,211.7700,
212.4300,211.7500,211.3900,212.7400,
212.7500,212.5900,212.2100,213.1800,
212.2900,212.4800,211.8000,212.5500,
211.8700,212.3000,211.5800,212.3000,
210.7300,210.6100,210.0400,211.2800,
209.7200,210.6800,209.6500,211.0500,
208.9900,209.7700,208.9400,209.9000,
207.2900,207.4800,204.9517,207.9800,
207.0400,204.9000,204.7700,207.3500,
205.7748,204.5300,204.2500,206.7645,
206.9600,208.0200,204.1100,208.1700,
205.7700,206.7200,205.5300,207.6500,
208.0700,207.3100,206.8100,208.2700,
207.7300,207.5000,206.5600,208.0300,
207.2600,205.8500,205.2800,207.3200,
208.0450,205.4200,205.3300,209.8280,
210.2900,209.8200,209.1600,210.5800,
211.1000,209.8600,209.7700,211.2500,
211.7200,210.5000,210.4700,212.1700,
212.1400,212.0400,211.5700,212.4400,
211.9050,211.8900,211.6400,212.5900,
211.4600,210.8100,210.3600,211.5500,
211.3100,212.7800,210.6315,213.3400,
210.5900,210.5900,209.3600,211.3200,
208.9300,210.2500,208.7200,210.3500,
208.6400,209.1100,207.7900,209.4500,
210.6400,210.0100,209.6800,211.4820,
211.4800,211.6300,211.2000,212.0900,
209.3700,210.9500,209.2987,211.4100,
208.4500,208.4500,207.6900,209.1000,
209.6400,208.4800,208.3900,209.8200,
209.9500,209.7700,208.9800,210.5800,
211.0700,210.1292,209.7500,211.8590,
212.0000,211.9200,211.3301,212.6700,
211.0200,211.3600,210.2700,212.1900,
211.9400,211.5700,210.6200,212.3400,
212.3800,211.1400,210.8200,212.4300,
212.3300,212.4600,211.6300,212.5900,
211.2500,212.7000,210.7612,212.9800,
212.4000,210.7000,210.2000,212.9089,
213.0400,212.9900,212.9100,213.5400,
212.7100,213.5000,212.5100,213.7500,
213.1500,212.8800,212.5040,213.7800,
213.2400,213.0300,212.6900,213.5700,
212.2400,213.1000,212.1600,213.4000,
212.4400,212.4400,211.8600,212.6100,
211.2400,212.2100,210.9100,212.3200,
210.4700,210.0200,209.7400,211.2200,
209.6100,209.9800,208.6200,210.6300,
211.5700,210.6050,210.5200,211.8900,
210.8800,211.6200,210.7800,211.8600,
207.9200,208.8700,207.5200,209.3800,
209.5600,208.0400,206.7600,209.9300,
211.0300,208.9000,208.7300,211.4600,
211.2300,211.3200,211.1000,212.0200,
209.4000,210.7200,209.2800,210.7700,
209.8800,208.4600,207.6200,210.3500,
210.3700,210.5700,209.6000,211.2900,
210.7400,211.4400,209.3301,211.5000,
212.3300,210.7700,210.5400,212.4800,
211.6600,211.6499,211.1100,211.9700,
210.1500,211.1600,210.0100,211.9400,
210.0100,210.6300,208.9000,210.8500,
210.6700,209.6000,209.2400,210.8600,
209.0600,209.8500,208.9600,210.2500,
208.9400,207.9500,207.0100,209.2300,
210.0300,210.3700,209.7928,210.9800,
210.0500,210.4300,209.9500,211.0400,
208.8500,209.4900,208.1000,209.7100,
209.8700,209.0900,209.0300,210.6300,
209.2000,210.0400,208.9600,210.0900,
207.7800,208.9000,207.1900,209.1800,
207.5500,207.9750,207.0800,208.5100,
207.8550,207.2800,207.2400,208.7600,
205.3700,207.8300,205.2100,208.4500,
205.6200,206.4350,205.4000,206.9800,
206.3900,205.7000,204.5100,206.4200,
207.2600,206.4300,206.3600,208.1000,
206.9800,208.2500,206.9600,208.6100,
205.1300,205.7400,204.9000,205.9500,
204.9600,205.2700,204.1200,206.3700,
209.0700,205.7600,205.7100,209.3500,
209.8500,208.8200,208.7400,210.4000,
210.4200,210.0000,210.0000,211.1100,
209.7100,210.4100,209.4903,211.0200,
209.9600,209.5000,209.0300,210.4697,
207.3900,210.4600,206.6200,211.2700,
207.6900,207.9600,206.9800,208.4200,
206.7100,208.5800,205.8641,208.6900,
206.7700,205.8272,204.5800,207.9338,
205.2600,207.1000,205.2000,207.1750,
205.2900,204.5000,204.4000,205.5000,
206.7100,204.9800,204.9300,206.8100,
207.7400,208.3600,207.5459,208.7900,
209.4200,207.5000,207.1000,209.9400,
210.6200,210.4600,209.8500,210.8000,
210.4000,210.2301,209.0600,210.4900,
211.4700,211.1200,210.0800,212.0540,
210.7800,211.9900,210.7200,212.0600,
211.2600,210.6600,210.6000,211.5800,
211.5200,211.3800,210.6500,211.7100,
211.6600,211.6300,211.2200,212.2400,
211.1200,211.8100,210.7600,212.0500,
210.9400,211.2090,210.4800,211.2100,
209.4800,211.2390,208.7300,211.3300,
209.4100,209.9800,209.2400,210.4200,
209.6600,210.1300,209.3401,210.2200,
209.4000,210.1100,209.1000,210.3200,
209.0700,209.7800,208.7600,209.8400,
207.8900,208.9200,206.9727,208.9900,
206.6100,206.9300,205.8300,207.4500,
205.8800,206.8100,204.6801,207.1200,
204.7700,204.6300,204.1350,205.6400,
206.5600,205.5500,204.9200,207.2400,
204.8600,206.1200,204.7700,206.3000,
203.9200,204.0600,203.5100,205.3800,
203.0000,204.8400,202.5500,204.8500,
200.0500,201.9200,197.8600,202.0300,
200.5700,199.4500,199.1300,202.1700,
200.3800,201.9902,198.6800,202.3000,
204.1700,200.1400,199.9100,204.2900,
202.9700,202.7400,201.7400,204.1200,
204.7100,205.4500,203.8500,205.5600,
205.7900,204.9700,204.8100,206.1000,
203.9900,206.1000,202.3300,206.2600,
201.5000,203.0800,200.9400,203.6600,
202.4000,202.0550,200.1700,202.7200,
198.7700,201.6300,198.5500,201.8200,
201.6300,199.0199,198.8800,202.0100,
199.6500,200.8600,198.5700,201.1000,
204.1200,202.0800,200.5100,205.4800,
204.4100,202.6500,201.9200,204.6000,
206.4000,204.2500,203.5100,206.4200,
204.0100,205.9000,203.9900,206.1600,
201.4200,202.3100,200.8800,202.7200,
202.0900,199.8200,198.8550,202.7200,
204.1700,201.7200,201.3500,204.3700,
206.3800,205.4300,204.1800,206.8800,
207.9900,205.5400,205.3900,208.1900,
208.2100,207.6000,207.5100,208.3700,
208.2200,208.7200,208.1400,208.9700,
208.3100,208.4400,208.2500,208.8500,
208.0200,207.7700,207.7200,208.3400,
208.1700,207.7500,207.3991,208.2300,
206.7500,207.4700,206.4600,207.4700,
206.4300,206.5200,205.6109,207.3300,
204.7400,206.7800,203.9200,212.9700,
198.4400,201.7900,198.2900,202.3400,
198.5800,197.9100,197.8600,202.3950,
201.9800,199.5100,198.7800,202.5300,
202.6400,200.8900,200.8500,203.8190,
203.8800,204.1900,203.7100,206.1900,
205.9100,203.1601,202.9300,205.9800,
204.3700,206.4700,203.9100,206.6000,
207.5200,206.6100,205.9300,208.1200,
207.8700,208.0000,207.5500,208.4700,
207.5400,207.6600,206.7000,208.2650,
207.3000,207.8900,207.1000,208.1500,
205.8100,207.0850,205.7820,207.3400,
206.4000,205.7600,205.3800,206.5400,
207.4900,207.2000,206.9100,207.8700,
207.2900,207.6400,207.0300,207.7600,
207.5400,207.1100,206.8000,207.7900,
207.1700,207.2600,206.9100,207.3900,
207.6400,206.6800,205.9800,207.8445,
204.2600,205.5800,204.1800,205.7100,
205.3100,205.2200,204.3000,205.5500,
204.4400,205.5500,204.4400,205.9200,
203.8500,204.3700,203.6500,204.5800,
204.1200,204.2400,203.7200,204.4900,
204.1400,204.1900,203.2100,204.8300,
203.3500,203.9600,203.3100,204.2400,
204.0550,204.1750,203.6500,204.3100,
203.3900,203.9800,203.1300,204.0400,
203.1900,203.3400,202.6100,203.5999,
202.3900,203.1500,201.6400,203.2600,
202.5400,202.3400,201.4500,202.5900,
201.2300,201.0700,200.0600,201.6000,
201.9200,201.7700,201.3050,202.4500,
201.7800,201.6600,200.7700,201.8200,
197.5700,199.3800,197.4000,199.9500,
198.5500,198.1100,196.8000,199.1200,
196.8200,198.4100,196.7300,198.4200,
195.7300,196.1600,195.0300,196.4500,
195.2500,196.4300,194.4900,196.4900,
194.6200,194.9300,194.2600,196.2000,
194.4600,192.6900,192.6100,194.9100,
191.6800,194.0700,191.4800,194.2000,
188.1800,190.3000,188.0700,190.4500,
188.4200,188.4700,187.6200,189.7500,
183.0600,186.2700,182.8900,187.5800,
185.1600,186.4300,181.9200,187.6940,
188.4200,187.7000,187.0400,189.8200,
190.4600,187.4099,187.3000,191.1500,
192.6900,190.5400,190.4900,193.6500,
196.3300,192.7400,192.5800,196.6000,
193.3700,196.6400,192.3600,196.9200,
195.2800,193.2600,193.2200,195.7200,
197.3400,196.2900,195.5820,197.6000,
195.6800,196.5200,195.0800,196.9400,
194.1800,194.3800,192.3500,195.0550,
196.7000,194.3500,193.9100,196.7700,
197.6900,197.0200,196.6100,198.3000,
196.2000,197.5400,196.0500,197.8900,
196.7000,197.9000,196.4200,198.3900,
199.0400,196.3400,196.2700,199.0500,
198.0400,199.5600,197.5200,199.6900,
198.4300,198.0100,197.9500,199.2600,
200.3500,199.1500,198.7300,200.3800,
201.5200,200.7000,200.2900,201.8990,
201.3600,201.8200,201.1000,201.8500,
200.7700,200.7500,199.7500,201.6800,
198.6100,200.4800,198.5000,200.8400,
199.1600,198.9810,198.3800,199.3200,
200.1000,199.1300,198.5600,200.1200,
199.2700,200.3000,199.1200,200.3300,
199.4300,200.0700,198.7700,200.2000,
200.4100,199.3200,198.9100,200.5500,
200.9200,200.5900,200.0000,201.2100,
200.1700,201.1100,199.4100,201.1900,
200.8400,200.2101,199.6600,201.5800,
201.3800,200.5000,200.2200,201.4100,
200.9700,200.6100,199.8600,200.9950,
200.4500,200.7100,199.8200,200.7300,
199.5900,200.1400,199.3900,200.2700,
200.4300,200.2500,199.9400,200.5700,
200.3300,200.3300,200.2800,200.8200,
200.1400,200.2000,199.1502,200.5949,
199.3400,199.1900,198.7400,199.6900,
199.0900,199.5000,198.9300,199.7600,
198.1200,198.9200,198.0800,199.1600,
197.8400,198.3900,197.4426,198.5400,
196.8000,197.3600,196.6900,197.4500,
196.4700,195.7200,194.3100,196.6500,
195.1600,195.7600,194.9800,195.7600,
194.2900,194.8400,193.9600,195.0600,
193.6100,193.5300,192.9400,194.1500,
193.9650,193.7950,193.7100,194.6600,
191.4600,193.2400,190.9500,193.3700,
192.9350,191.0300,190.5500,193.1300,
191.1100,192.0700,191.0800,192.8900,
193.1000,192.0100,191.3100,193.6000,
192.8700,193.8900,192.0500,194.3000,
192.5600,192.5000,191.5700,193.7600,
195.6100,193.0900,192.9700,195.7800,
197.6500,196.9800,196.1600,197.9100,
198.1700,196.9500,196.9200,198.4500,
197.7600,197.8000,196.6200,198.0900,
198.0900,197.7200,197.3300,198.2600,
198.8300,198.6500,198.4500,199.0600,
198.4950,198.6400,198.1000,198.8500,
198.0100,198.2000,197.8700,198.5600,
197.0900,197.3400,196.4300,197.5000,
196.3500,197.7099,196.2400,197.9100,
197.3490,195.7100,195.4300,198.1000,
198.1100,197.9600,197.4200,198.2600,
197.7200,197.2300,196.3600,198.1000,
197.6100,197.6000,197.4400,197.8600,
196.2200,196.6100,195.7800,196.7500,
195.2200,196.3400,195.0600,196.8600,
196.7300,197.1200,196.3100,197.2950,
197.1500,196.2400,195.7600,197.2200,
197.8200,197.5100,197.2200,197.9800,
197.7900,198.2000,197.6400,198.2900,
197.0500,197.2300,196.9600,197.4800,
196.1900,197.0300,196.1300,197.6300,
195.7000,195.7200,195.5300,196.1650,
194.9800,195.8200,194.8850,195.8800,
195.6100,195.4400,194.1300,195.6300,
194.2500,195.5800,194.2500,195.7810,
195.5300,194.7000,194.4800,196.5000,
195.9700,195.8800,195.5200,196.0500,
196.0300,195.9400,195.7000,196.1039,
196.4300,196.4800,195.8000,196.6000,
194.8300,196.2550,194.4000,196.3700,
194.0200,194.8300,193.8100,194.9700,
193.8900,194.2900,193.6600,194.7000,
193.9000,194.1300,193.3000,194.3200,
194.6500,193.5400,193.1100,194.8000,
194.9000,194.9200,194.4800,195.1200,
195.3300,195.6000,194.9200,195.6400,
195.3500,195.5800,195.1700,196.0500,
194.8700,195.3750,194.7800,195.4300,
193.4100,194.4500,192.7000,194.6500,
192.4700,193.1900,192.2650,193.3000,
192.4000,192.8000,192.2500,192.9000,
192.9500,192.8950,191.9700,192.9900,
192.1900,192.6800,192.0300,192.8000,
191.8200,192.3700,191.3300,192.4000,
191.5200,191.3800,191.0600,191.8200,
191.0500,191.5200,190.9500,191.5800,
189.7500,190.3500,189.5858,190.4800,
189.1800,189.5900,188.8600,189.9800,
188.1000,189.1300,188.0600,189.2200,
188.6450,187.5500,187.0700,188.6700,
187.6900,188.7400,187.5200,188.8900,
187.5100,188.0500,186.7200,188.1300,
188.6700,187.4000,186.4800,188.7200,
189.7900,189.0600,188.7900,189.8800,
190.0300,189.9600,189.7700,190.4200,
188.7600,189.7850,187.9992,189.8800,
187.6900,187.9600,186.8300,188.0400,
187.6700,187.6750,187.0800,189.0500,
187.4300,187.8800,186.0100,187.9700,
188.0000,186.7800,186.7400,188.1300,
187.1400,188.4200,186.6200,188.5500,
188.3100,188.0600,187.7800,189.1400,
188.2200,188.3250,187.7300,188.8400,
187.4400,188.3100,187.1800,188.5000,
187.4800,187.7500,187.0800,188.0400,
187.0500,186.8750,184.9600,187.6900,
187.2100,186.2900,185.8700,187.3300,
188.3700,187.8300,186.9300,188.3900,
187.8100,187.4500,187.3000,187.9200,
187.2300,187.8900,187.1300,188.4000,
186.4400,187.0400,186.2100,187.1000,
185.8800,186.3900,185.5600,186.9100,
185.4700,186.1250,184.6500,186.1400,
183.3200,184.2000,181.5100,184.3300,
182.9300,182.9401,181.4400,183.3700,
182.1700,181.5100,181.3100,183.4200,
187.0900,183.1550,182.9300,187.1700,
185.6000,187.0900,185.0600,187.1500,
184.2100,185.1000,183.5900,185.4000,
185.9000,184.3400,183.9600,186.2600,
189.6400,186.4000,186.1000,189.7000,
189.1700,188.6300,188.0500,189.2200,
188.5000,188.8800,188.1400,189.1300,
187.6200,188.2500,187.0015,188.3600,
186.6500,187.0100,185.5216,187.3000,
185.1050,185.4900,185.0000,186.4200,
184.7700,184.5800,183.9000,185.3400,
187.0300,184.9700,184.9200,187.3400,
186.3700,186.3100,185.2700,186.9400,
186.8200,185.4300,184.6200,187.0700,
187.7200,186.2000,186.0300,189.0239,
186.2500,187.7470,185.9200,187.8900,
187.7000,186.6600,185.4700,187.9400,
186.7100,187.6600,186.5100,187.9100,
185.5900,186.3300,185.5100,186.7700,
184.8000,184.6600,184.4400,185.8000,
187.8400,185.1800,184.6600,187.9900,
186.3200,187.2800,185.9000,187.3500,
188.4400,187.2300,186.8000,188.7100,
187.9400,188.1600,187.0800,188.2300,
188.8700,188.2600,187.4300,188.9600,
188.2100,188.1800,187.7796,188.6100,
187.7200,187.7500,187.4500,188.0700,
186.7500,187.5800,186.7500,187.9800,
184.6900,184.9800,183.7500,185.4500,
185.7900,186.2900,185.0500,187.1500,
184.5900,185.8200,184.3700,185.8700,
185.1100,184.8500,184.3300,185.6000,
185.0300,184.8400,184.2300,185.5900,
184.2800,184.9100,184.2000,186.1500,
184.4900,183.8900,183.8000,184.8900,
183.2700,184.1000,182.6000,184.5200,
183.7600,183.0200,182.8700,184.9500,
184.1900,184.2400,183.6500,184.4900,
182.8400,184.0200,182.6700,184.3600,
180.8400,183.0100,180.8300,183.2000,
182.2200,182.0700,181.7050,182.8300,
180.1600,181.9800,180.0389,182.4390,
179.7000,180.0100,179.2100,180.0700,
178.3100,179.6800,177.7300,179.8700,
175.5800,177.4800,175.2209,177.4800,
174.7900,175.1700,173.7100,175.5600,
174.9500,175.3850,174.1055,175.8400,
177.9500,174.1700,173.8300,178.3700,
177.0200,178.1800,176.9200,179.2900,
178.8600,179.2300,178.2600,179.8100,
177.5600,177.3500,176.8800,178.5500,
178.1400,179.0700,178.1200,179.3000,
179.0600,178.0100,177.1200,179.5200,
181.6000,178.8900,178.8300,181.6600,
183.3600,182.7900,181.8200,183.4000,
184.4900,184.3000,183.9100,184.5700,
184.7000,184.1800,183.0500,184.7700,
184.1000,183.6350,183.3200,184.4500,
184.2800,184.4200,183.8300,184.6618,
184.1000,184.6600,183.7102,184.9400,
182.2800,183.6700,181.9500,183.7700,
183.7100,181.6850,181.3400,184.1800,
183.9500,184.1400,183.0100,184.2200,
184.1000,183.6400,182.7950,184.1300,
183.4500,183.5200,182.8900,183.8300,
183.0900,183.4800,182.9500,183.7900,
183.4700,182.3600,182.0800,183.5600,
183.2100,182.8850,182.6300,183.6000,
183.9800,182.9200,182.4800,184.0700,
184.0700,184.6900,183.9300,184.6900,
183.8700,183.8200,183.5800,184.0200,
184.1000,183.8450,183.6600,184.1800,
183.3400,183.8550,183.3200,183.9600,
182.5400,182.9300,182.5300,183.0100,
182.4100,182.5300,182.0650,182.6400,
180.6700,181.5600,180.5683,181.9900,
181.1900,181.4900,180.7100,181.7000,
178.9200,181.7000,177.3200,181.7300,
179.3600,178.6500,178.2500,179.4100,
178.9500,179.2160,178.9000,179.8100,
178.5000,178.1100,177.7700,178.6600,
178.6400,178.1300,177.7600,178.8600,
180.8100,178.7200,178.5000,180.8500,
180.9800,180.7500,180.6350,181.3600,
181.4700,181.4000,181.1600,181.6700,
180.6700,180.9400,180.1500,181.1100,
179.4100,178.9400,178.7701,179.7400,
179.1000,179.7300,178.3500,180.4800,
179.9400,179.7500,179.1700,180.3900,
181.0900,180.5300,180.2500,181.4300,
181.3200,181.0000,180.8000,181.7500,
180.8700,181.1200,180.6500,181.2400,
180.7200,180.6800,180.4050,181.2200,
181.1300,180.6300,180.3700,181.1700,
179.9800,180.8100,179.7700,180.8300,
178.9700,179.9100,178.8600,180.0500,
179.3900,178.4700,177.9800,179.9300,
179.3300,179.0300,178.7200,179.8700,
180.3500,179.4200,179.0200,180.5000,
179.5600,180.0500,179.3300,180.1200,
178.5400,179.2700,178.2500,179.4200,
176.0900,178.3800,176.0900,178.4261,
176.9400,176.9600,176.3700,177.3600,
177.1200,177.3200,176.9100,177.5300,
174.8700,177.2900,174.8500,177.3100,
177.5000,174.9300,174.7600,177.6400,
177.0300,177.1700,176.5400,177.5000,
176.1400,176.2700,175.5700,176.7500,
176.6900,176.8300,175.9825,176.9000,
176.0200,176.2100,175.2200,176.6100,
176.1500,175.7900,175.5300,176.8900,
177.3800,176.2900,175.6600,177.5100,
176.6300,177.1700,176.3800,177.2400,
175.8900,176.2300,175.7000,176.4700,
175.5100,175.9500,175.1700,176.0000,
174.9200,175.1500,174.5100,175.3700,
174.8100,174.5700,173.9600,174.8900,
174.9100,175.4100,174.4262,175.9300,
174.4500,174.4000,174.0100,174.7500,
173.8600,174.3880,173.5100,174.5100,
171.3700,173.2200,171.3400,173.3200,
170.7200,172.0700,170.6350,172.1600,
170.5100,169.7000,169.4700,171.1500,
169.2100,170.9400,169.0800,171.0800,
168.9100,170.2600,168.7700,170.3200,
167.2900,169.1700,167.2300,169.2600,
165.8000,165.6000,164.5300,166.2000,
167.4000,165.4800,165.3600,167.6200,
167.4200,167.4300,167.2500,168.4500,
167.7500,168.8900,167.5300,169.0600,
168.7900,167.6200,166.8400,168.9400,
168.3500,169.1800,167.8300,169.3422,
168.1400,169.3400,167.9671,169.5000,
167.4800,168.0100,167.1500,168.5400,
168.8400,168.9090,168.4700,169.1400,
169.3200,169.6900,169.0500,170.1700,
169.6400,169.0400,168.8900,169.9800,
169.9000,169.5300,169.2100,170.5300,
170.4900,169.9300,169.3900,170.6500,
172.3300,170.7200,170.5800,172.3300,
173.5200,172.7600,172.5850,173.6000,
171.0100,173.0510,170.5800,173.5200,
170.4600,171.0700,170.4600,171.1100,
171.1600,170.3100,170.0400,171.2400,
169.1300,169.3300,168.7400,169.4600,
169.3400,168.9500,168.7200,169.5600,
168.6400,169.4000,168.3500,169.4000,
168.6400,168.8700,168.2600,168.9000,
166.4500,167.6340,166.4500,167.7300,
166.5100,166.0400,164.4800,166.9800,
165.8500,165.9600,165.7300,166.4000,
164.4300,165.7500,164.1350,166.0300,
165.2300,164.3900,163.7000,165.5800,
164.5100,163.6500,163.1700,164.5300,
163.5500,164.1700,163.4000,165.0400,
163.2600,163.9100,163.0500,164.4900,
164.3600,163.3300,163.2100,166.0024,
166.7900,166.0000,165.8900,167.3000,
166.5500,166.6200,165.7700,166.8300,
164.9000,166.0600,164.8900,166.3000,
165.1200,164.5600,164.1900,166.0300,
165.0400,165.5800,164.8600,166.2000,
165.6400,164.7700,164.7600,166.2100,
166.0600,165.8300,165.5000,166.6300,
167.4100,166.3800,166.0900,167.4300,
169.5300,168.7400,168.7000,169.8000,
169.4100,169.6100,168.4100,169.9000,
168.4600,169.1110,168.3800,169.3100,
169.5800,169.3100,168.7200,170.1000,
169.9800,169.8000,168.9300,170.1800,
169.1900,169.1800,168.5500,169.4300,
170.3700,169.7300,169.3500,170.7402,
170.5700,170.7000,170.3500,170.9600,
170.2800,170.9500,170.0500,170.9725,
169.9900,170.6600,169.9000,170.8100,
168.9400,168.7100,168.4900,169.8500,
169.1000,168.5880,168.1900,169.2800,
168.6800,168.5900,168.1100,169.0600,
168.2200,169.1100,167.5200,169.1600,
168.2200,168.9300,167.9400,169.0800,
169.7900,168.5200,168.1800,169.8600,
169.8000,169.1400,169.0500,169.8300,
169.4100,169.5000,169.0100,169.7400,
168.5200,169.1700,168.3100,169.2300,
168.3100,168.8700,168.2000,169.2700,
168.1600,167.9501,167.7300,168.4800,
168.2600,167.5250,167.0700,168.3600,
167.9700,168.1550,167.6800,168.3900,
167.3900,167.5100,167.1300,167.9332,
167.1100,167.4400,165.1774,167.6100,
164.9700,165.1920,164.6300,165.7500,
164.9800,165.1300,164.2700,165.3300,
163.8600,163.9450,163.5800,164.3900,
162.4700,163.0200,161.3000,163.0800,
160.4800,161.2800,160.2200,161.7700,
161.1200,161.2100,160.5000,162.3000,
161.2600,161.3600,161.0800,162.4800,
160.6300,160.4200,159.8600,161.4000,
161.1000,161.0800,160.9500,161.8200,
159.8700,160.1400,159.2500,160.5000,
158.4800,158.5750,157.4200,160.1000,
157.4100,157.0600,155.7300,158.4300,
159.6400,159.0700,157.4700,159.7600,
161.8600,159.4000,158.9800,163.4668,
165.6000,163.4500,163.3800,165.8900,
164.5300,165.7350,164.5200,165.9900,
164.2900,164.4400,163.2192,165.2200,
164.0300,163.1750,162.9100,164.6700,
161.6600,164.2100,161.3000,164.5000,
164.2200,161.7500,161.6000,164.3900,
163.3000,163.0980,162.7390,164.5400,
165.3100,164.8000,164.3700,165.4000,
163.8500,164.8000,163.1400,164.9500,
161.2000,162.7300,160.2500,162.7400,
163.0900,161.2720,161.1300,163.4200,
164.4400,163.5600,162.7300,165.1000,
163.8300,164.3500,162.6599,164.4600,
165.3700,163.4450,163.1300,166.3100,
165.3500,165.8300,165.2200,166.5900,
165.4200,165.2200,164.3400,165.8000,
167.0400,166.3000,165.8100,167.7800,
164.4700,165.3080,163.9800,165.3805,
164.1600,165.4500,163.9400,165.9100,
167.3400,165.9300,165.1700,169.0700,
167.0800,167.1700,166.5000,167.8000,
166.7800,166.9300,166.6100,167.5800,
165.9500,166.9400,165.7300,167.0400,
165.7800,165.3400,165.0900,166.3600,
164.9600,166.1150,164.9100,166.4500,
163.6700,165.2300,163.6700,165.3500,
163.2000,163.5400,162.8200,163.8100,
162.9900,163.4100,162.5100,163.5498,
163.2700,162.8810,162.4700,163.7000,
162.4200,163.3400,162.3300,163.3900,
162.1300,162.5999,161.6700,162.6500,
161.4900,161.7800,161.4200,162.0100,
161.1400,161.3680,159.7820,161.8800,
158.6800,159.7500,158.5300,159.8900,
159.3300,158.2800,158.1000,159.4100,
159.2700,159.6800,158.6100,159.7200,
158.6700,159.3000,158.4200,159.6500,
158.3300,158.2400,157.7300,158.6000,
158.3400,158.5200,158.1000,159.2700,
157.8300,157.8800,157.5400,158.3000,
156.9500,157.7800,156.1700,157.9300,
155.7800,156.1700,154.7500,156.5400,
154.5000,155.4800,154.1200,155.5500,
155.3700,154.1400,153.5500,155.4100,
156.2900,155.1100,154.2800,156.3200,
156.2900,157.4100,155.9100,157.4900,
158.0000,155.1180,155.1000,158.1300,
158.6800,158.8000,157.9200,159.0400,
158.7000,159.1900,158.5400,159.7100,
157.1700,158.6700,157.1300,158.8700,
156.5000,156.7500,155.9800,157.3200,
155.2700,156.2100,154.7500,156.2200,
153.9500,155.1580,153.7700,155.3500,
155.4300,155.8600,155.0900,156.1700,
156.9100,155.2300,154.8200,157.0300,
156.6100,156.8200,156.3700,157.2100,
156.5900,156.0500,155.6700,156.9100,
156.0900,156.6700,155.7500,156.8500,
155.2600,156.1900,155.0000,156.2450,
155.5900,156.1900,155.4200,156.2300,
156.0100,154.9500,154.3500,156.2700,
154.8500,155.6000,154.7300,155.6000,
154.7600,154.3590,154.1000,155.6389,
155.5200,155.6900,155.2600,155.9500,
155.3000,154.6100,153.5900,155.5100,
154.3400,154.9700,154.2000,155.6400,
155.8500,155.8300,155.3100,156.0400,
156.3100,156.7300,155.9078,156.8000,
155.7600,155.9050,155.2300,156.1200,
155.9200,155.6800,155.2100,156.1000,
155.3250,156.0300,155.1300,156.0400,
155.4600,155.4400,154.6600,155.6500,
154.7000,154.7760,154.5200,154.9800,
154.8400,154.5000,154.1600,154.9200,
153.6600,154.2900,153.6400,154.7000,
151.7600,152.9200,151.5200,152.9200,
151.0900,152.1100,150.4100,152.3400,
151.9000,151.6100,151.4100,152.8700,
149.8900,151.9100,149.7600,152.3300,
149.7200,150.0200,148.7300,150.2000,
152.6300,149.0000,149.0000,152.8600,
151.1500,151.8900,150.4913,151.8900,
150.9600,150.4200,149.9400,151.4218,
153.1400,151.3400,151.2600,153.1900,
152.3700,153.2500,152.1629,153.2800,
152.4300,152.1100,151.5500,152.5900,
151.6900,152.2900,151.5200,152.4700,
152.3300,152.1510,151.7200,152.6100,
151.7800,152.0200,151.6100,152.3000,
151.7400,151.7700,151.3938,151.9000,
151.2200,151.8000,151.2200,151.8900,
151.2050,150.9600,149.8600,151.3500,
150.5200,151.1600,150.4100,151.2600,
150.3500,151.0500,150.2900,151.4800,
150.3200,149.5350,149.4300,151.2679,
150.6500,151.2400,150.3900,151.4200,
149.8900,149.7000,149.6000,150.3800,
150.6400,150.0700,149.9300,150.9400,
149.7700,150.6600,149.6700,150.8500,
150.2900,150.0700,149.5100,150.3300,
149.8800,150.2500,149.3726,150.2500,
149.1500,149.4100,149.0100,150.1400,
149.1300,149.3700,148.8600,149.5000,
148.3300,149.1300,147.9800,149.1300,
147.9700,148.3300,147.4300,148.4900,
147.7000,148.0000,147.1446,148.4200,
146.7700,147.0500,146.6100,147.2800,
146.2900,147.0700,146.2000,147.2100,
146.8900,146.9700,146.4300,147.0700,
147.0400,147.0700,146.6100,147.1500,
146.7300,147.0800,145.9700,147.0900,
145.8700,145.9200,145.6400,146.3200,
145.7100,145.5496,144.9800,145.9100,
145.8500,145.9695,145.4300,146.4442,
145.9700,146.3700,145.6700,146.6100,
145.9900,145.7341,145.3400,146.3700,
145.1100,146.0600,144.7300,146.1500,
