02.01.2019 09:37:45   Get configuration from app.config
02.01.2019 09:38:04  Check time
02.01.2019 09:38:45  Call method GetDataSet()
02.01.2019 09:39:13  method GetDataSet() returned True 
02.01.2019 09:39:20  method GetDataSet() returned True 
02.01.2019 09:42:58   Get configuration from app.config
02.01.2019 09:42:59  Check time
02.01.2019 09:43:03  Call method GetDataSet()
02.01.2019 09:43:15  method GetDataSet() returned True 
02.01.2019 09:43:27  method GetDataSet() returned True 
02.01.2019 09:43:31  Send email 
02.01.2019 09:43:41  Started Teaching
02.01.2019 10:03:57   Get configuration from app.config
02.01.2019 10:03:58  Check time
02.01.2019 10:04:00  Call method GetDataSet()
02.01.2019 10:04:13  method GetDataSet() returned True 
02.01.2019 10:04:16  method GetDataSet() returned True 
02.01.2019 10:04:17  Send email 
02.01.2019 10:17:22   Get configuration from app.config
02.01.2019 10:17:23  Check time
02.01.2019 10:17:23  Call method GetDataSet()
02.01.2019 10:18:36   Get configuration from app.config
02.01.2019 10:18:38  Check time
02.01.2019 10:18:38  Call method GetDataSet()
02.01.2019 10:20:22   Get configuration from app.config
02.01.2019 10:20:22  Check time
02.01.2019 10:41:07   Get configuration from app.config
02.01.2019 10:41:07  Check time
02.01.2019 10:41:45   Get configuration from app.config
02.01.2019 10:41:45  Check time
02.01.2019 10:42:04   Get configuration from app.config
02.01.2019 10:42:04  Check time
02.01.2019 10:43:16   Get configuration from app.config
02.01.2019 10:43:16  Check time
02.01.2019 10:43:39  Call method GetDataSet()
02.01.2019 10:45:08   Get configuration from app.config
02.01.2019 10:45:08  Check time
02.01.2019 10:45:09  Call method GetDataSet()
02.01.2019 10:45:19   Get configuration from app.config
02.01.2019 10:45:19  Check time
02.01.2019 10:45:20  Call method GetDataSet()
02.01.2019 10:45:32   Get configuration from app.config
02.01.2019 10:45:32  Check time
02.01.2019 10:45:34  Call method GetDataSet()
02.01.2019 10:46:09   Get configuration from app.config
02.01.2019 10:46:09  Check time
02.01.2019 10:46:14  Call method GetDataSet()
02.01.2019 10:46:24   Get configuration from app.config
02.01.2019 10:46:24  Check time
02.01.2019 10:47:32   Get configuration from app.config
02.01.2019 10:47:32  Check time
02.01.2019 10:47:35  Call method GetDataSet()
02.01.2019 10:48:10   Get configuration from app.config
02.01.2019 10:48:10  Check time
02.01.2019 10:48:10  Call method GetDataSet()
02.01.2019 10:48:21  method GetDataSet() returned True 
02.01.2019 10:50:08   Get configuration from app.config
02.01.2019 10:50:08  Check time
02.01.2019 10:50:08  Call method GetDataSet()
02.01.2019 10:50:20  method GetDataSet() returned True 
02.01.2019 10:50:29  method GetDataSet() returned True 
02.01.2019 10:50:30  Send email 
02.01.2019 10:50:38  Started Teaching
02.01.2019 10:56:58   Get configuration from app.config
02.01.2019 10:57:03  Check time
02.01.2019 10:57:18   Get configuration from app.config
02.01.2019 10:57:23  Check time
02.01.2019 10:57:25  Call method GetDataSet()
02.01.2019 11:26:25   Get configuration from app.config
02.01.2019 11:26:25  Check time
02.01.2019 11:26:25  Call method GetDataSet()
02.01.2019 11:26:25  method GetDataSet() returned True 
02.01.2019 11:26:32  method GetDataSet() returned True 
02.01.2019 11:26:33  Send email 
02.01.2019 11:26:38  Started Teaching
02.01.2019 11:27:27   Get configuration from app.config
02.01.2019 11:27:28  Check time
02.01.2019 11:27:28  Call method GetDataSet()
02.01.2019 11:27:28  method GetDataSet() returned True 
02.01.2019 11:28:13   Get configuration from app.config
02.01.2019 11:28:13  Check time
02.01.2019 11:28:13  Call method GetDataSet()
02.01.2019 11:28:14  method GetDataSet() returned True 
02.01.2019 11:28:31   Get configuration from app.config
02.01.2019 11:28:31  Check time
02.01.2019 11:28:31  Call method GetDataSet()
02.01.2019 11:28:32  method GetDataSet() returned True 
02.01.2019 11:28:46   Get configuration from app.config
02.01.2019 11:28:46  Check time
02.01.2019 11:28:46  Call method GetDataSet()
02.01.2019 11:28:47  method GetDataSet() returned True 
02.01.2019 11:28:59   Get configuration from app.config
02.01.2019 11:28:59  Check time
02.01.2019 11:28:59  Call method GetDataSet()
02.01.2019 11:28:59  method GetDataSet() returned True 
02.01.2019 11:29:11   Get configuration from app.config
02.01.2019 11:29:11  Check time
02.01.2019 11:29:11  Call method GetDataSet()
02.01.2019 11:29:12  method GetDataSet() returned True 
02.01.2019 11:29:21  method GetDataSet() returned True 
02.01.2019 11:29:23  Send email 
02.01.2019 11:29:28  Started Teaching
02.01.2019 11:30:22   Get configuration from app.config
02.01.2019 11:30:22  Check time
02.01.2019 11:30:22  Call method GetDataSet()
02.01.2019 11:30:22  method GetDataSet() returned True 
02.01.2019 11:35:31   Get configuration from app.config
02.01.2019 11:35:31  Check time
02.01.2019 11:35:31  Call method GetDataSet()
02.01.2019 11:35:31  method GetDataSet() returned True 
02.01.2019 11:35:39  method GetDataSet() returned True 
02.01.2019 11:35:41  Send email 
02.01.2019 11:36:11   Get configuration from app.config
02.01.2019 11:36:11  Check time
02.01.2019 11:36:11  Call method GetDataSet()
02.01.2019 11:36:11  method GetDataSet() returned True 
02.01.2019 11:36:13  method GetDataSet() returned True 
02.01.2019 11:36:13  Send email 
02.01.2019 11:36:15  Started Teaching
02.01.2019 11:40:43   Get configuration from app.config
02.01.2019 11:40:44  Check time
02.01.2019 11:40:44  Call method GetDataSet()
02.01.2019 11:40:44  method GetDataSet() returned True 
02.01.2019 11:40:48  method GetDataSet() returned True 
02.01.2019 11:40:48  Send email 
02.01.2019 11:40:50  Started Teaching
02.01.2019 11:43:13   Get configuration from app.config
02.01.2019 11:43:18  Check time
02.01.2019 11:43:19  Call method GetDataSet()
02.01.2019 11:43:22  method GetDataSet() returned True 
02.01.2019 11:44:52   Get configuration from app.config
02.01.2019 11:44:52  Check time
02.01.2019 11:44:52  Call method GetDataSet()
02.01.2019 11:44:53  method GetDataSet() returned True 
02.01.2019 11:45:39   Get configuration from app.config
02.01.2019 11:45:39  Check time
02.01.2019 11:46:06   Get configuration from app.config
02.01.2019 11:46:06  Check time
02.01.2019 11:46:36   Get configuration from app.config
02.01.2019 11:46:36  Check time
02.01.2019 11:57:42   Get configuration from app.config
02.01.2019 11:57:42  Check time
02.01.2019 11:59:14   Get configuration from app.config
02.01.2019 11:59:14  Check time
02.01.2019 12:01:05   Get configuration from app.config
02.01.2019 12:01:05  Check time
02.01.2019 12:01:29   Get configuration from app.config
02.01.2019 12:01:29  Check time
02.01.2019 12:03:38   Get configuration from app.config
02.01.2019 12:03:38  Check time
02.01.2019 12:03:52  Call method GetDataSet()
02.01.2019 12:03:54  method GetDataSet() returned True 
02.01.2019 12:06:51   Get configuration from app.config
02.01.2019 12:06:52  Check time
02.01.2019 12:06:54  Call method GetDataSet()
02.01.2019 12:06:54  method GetDataSet() returned True 
02.01.2019 12:08:18   Get configuration from app.config
02.01.2019 12:08:18  Check time
02.01.2019 12:08:23  Call method GetDataSet()
02.01.2019 12:08:23  method GetDataSet() returned True 
02.01.2019 12:11:22  method GetDataSet() returned True 
02.01.2019 12:11:22  Send email 
02.01.2019 12:11:24  Started Teaching
02.01.2019 12:11:47   Get configuration from app.config
02.01.2019 12:11:47  Check time
02.01.2019 12:11:47  Call method GetDataSet()
02.01.2019 12:11:47  method GetDataSet() returned True 
02.01.2019 12:11:49  method GetDataSet() returned True 
02.01.2019 12:11:49  Send email 
02.01.2019 12:11:51  Started Teaching
02.01.2019 12:37:50   Get configuration from app.config
02.01.2019 12:37:50  Check time
02.01.2019 12:37:50  Call method GetDataSet()
02.01.2019 12:37:51  method GetDataSet() returned True 
02.01.2019 12:38:02  method GetDataSet() returned True 
02.01.2019 12:38:04  Send email 
02.01.2019 12:38:13  Started Teaching
02.01.2019 12:52:56   Get configuration from app.config
02.01.2019 12:52:56  Check time
02.01.2019 12:52:56  Call method GetDataSet()
02.01.2019 12:52:56  method GetDataSet() returned True 
02.01.2019 12:53:10  method GetDataSet() returned True 
02.01.2019 12:53:11  Send email 
02.01.2019 12:53:18  Started Teaching
02.01.2019 13:13:59   Get configuration from app.config
02.01.2019 13:13:59  Check time
02.01.2019 13:52:14   Get configuration from app.config
02.01.2019 13:52:14  Check time
02.01.2019 13:52:29   Get configuration from app.config
02.01.2019 13:52:29  Check time
02.01.2019 13:53:59   Get configuration from app.config
02.01.2019 13:53:59  Check time
02.01.2019 13:54:51   Get configuration from app.config
02.01.2019 13:54:51  Check time
02.01.2019 13:57:11   Get configuration from app.config
02.01.2019 13:57:11  Check time
