 started
 started
 started
 You must specify a consumer key
 started
 You must specify a consumer key
 started
 You must specify a consumer key
 started
 You must specify a consumer key
 started
 Odmowa dostępu do ścieżki „C:\Program Files (x86)\IIS Express\MSFT.txt”.
 started
 started
 started
 started
 started
 started
