 started
 started
 Odwołanie do obiektu nie zostało ustawione na wystąpienie obiektu.
 Odwołanie do obiektu nie zostało ustawione na wystąpienie obiektu.
 started
 Odwołanie do obiektu nie zostało ustawione na wystąpienie obiektu.
 Odwołanie do obiektu nie zostało ustawione na wystąpienie obiektu.
 started
 Odwołanie do obiektu nie zostało ustawione na wystąpienie obiektu.
 Odwołanie do obiektu nie zostało ustawione na wystąpienie obiektu.
 started
 Odwołanie do obiektu nie zostało ustawione na wystąpienie obiektu.
 Serwer zdalny zwrócił błąd: (429) Too Many Requests.
 Serwer zdalny zwrócił błąd: (429) Too Many Requests.
 Odwołanie do obiektu nie zostało ustawione na wystąpienie obiektu.
 started
 Nie można uzyskać dostępu do zamkniętego pliku.
 Serwer zdalny zwrócił błąd: (429) Too Many Requests.
 Serwer zdalny zwrócił błąd: (429) Too Many Requests.
 Odwołanie do obiektu nie zostało ustawione na wystąpienie obiektu.
 started
 Odwołanie do obiektu nie zostało ustawione na wystąpienie obiektu.
 Serwer zdalny zwrócił błąd: (429) Too Many Requests.
 Serwer zdalny zwrócił błąd: (429) Too Many Requests.
 Odwołanie do obiektu nie zostało ustawione na wystąpienie obiektu.
 started
 Odwołanie do obiektu nie zostało ustawione na wystąpienie obiektu.
 Serwer zdalny zwrócił błąd: (429) Too Many Requests.
 Serwer zdalny zwrócił błąd: (429) Too Many Requests.
 Odwołanie do obiektu nie zostało ustawione na wystąpienie obiektu.
 started
 Odwołanie do obiektu nie zostało ustawione na wystąpienie obiektu.
 Serwer zdalny zwrócił błąd: (429) Too Many Requests.
 Serwer zdalny zwrócił błąd: (429) Too Many Requests.
 Odwołanie do obiektu nie zostało ustawione na wystąpienie obiektu.
 started
 Odwołanie do obiektu nie zostało ustawione na wystąpienie obiektu.
 Serwer zdalny zwrócił błąd: (429) Too Many Requests.
 Serwer zdalny zwrócił błąd: (429) Too Many Requests.
 Odwołanie do obiektu nie zostało ustawione na wystąpienie obiektu.
 started
 Odwołanie do obiektu nie zostało ustawione na wystąpienie obiektu.
 Serwer zdalny zwrócił błąd: (429) Too Many Requests.
 Serwer zdalny zwrócił błąd: (429) Too Many Requests.
 Odwołanie do obiektu nie zostało ustawione na wystąpienie obiektu.
 started
 Odwołanie do obiektu nie zostało ustawione na wystąpienie obiektu.
 Serwer zdalny zwrócił błąd: (429) Too Many Requests.
 Serwer zdalny zwrócił błąd: (429) Too Many Requests.
 Odwołanie do obiektu nie zostało ustawione na wystąpienie obiektu.
 started
 Odwołanie do obiektu nie zostało ustawione na wystąpienie obiektu.
 Odwołanie do obiektu nie zostało ustawione na wystąpienie obiektu.
 started
 Cannot deserialize the current JSON object (e.g. {"name":"value"}) into type 'QuickAI.ImportData.PrepareDataSet.Interfaces.TwitterModel.Retweed[]' because the type requires a JSON array (e.g. [1,2,3]) to deserialize correctly.
To fix this error either change the JSON to a JSON array (e.g. [1,2,3]) or change the deserialized type so that it is a normal .NET type (e.g. not a primitive type like integer, not a collection type like an array or List<T>) that can be deserialized from a JSON object. JsonObjectAttribute can also be added to the type to force it to deserialize from a JSON object.
Path 'statuses[0].retweeted_status.created_at', line 1, position 2771.
 Odwołanie do obiektu nie zostało ustawione na wystąpienie obiektu.
 started
 started
 started
 started
 Serwer zdalny zwrócił błąd: (429) Too Many Requests.
 Serwer zdalny zwrócił błąd: (429) Too Many Requests.
 Odwołanie do obiektu nie zostało ustawione na wystąpienie obiektu.
 Serwer zdalny zwrócił błąd: (429) Too Many Requests.
 Serwer zdalny zwrócił błąd: (429) Too Many Requests.
 Odwołanie do obiektu nie zostało ustawione na wystąpienie obiektu.
 started
 started
 Serwer zdalny zwrócił błąd: (429) Too Many Requests.
 Serwer zdalny zwrócił błąd: (429) Too Many Requests.
 Odwołanie do obiektu nie zostało ustawione na wystąpienie obiektu.
 Odwołanie do obiektu nie zostało ustawione na wystąpienie obiektu.
 Serwer zdalny zwrócił błąd: (429) Too Many Requests.
 Serwer zdalny zwrócił błąd: (429) Too Many Requests.
 Odwołanie do obiektu nie zostało ustawione na wystąpienie obiektu.
 Usługa „QuickAI.ImportData.PrepareDataSet.Service.ObtainDataService” ma zerowe punkty końcowe aplikacji. Może to być spowodowane tym, że nie znaleziono pliku konfiguracji dla aplikacji, nie znaleziono elementu usługi pasującego do nazwy usługi w pliku konfiguracji lub nie zdefiniowano punktów końcowych w elemencie usługi.
 started
 Usługa „QuickAI.ImportData.PrepareDataSet.Service.ObtainDataService” ma zerowe punkty końcowe aplikacji. Może to być spowodowane tym, że nie znaleziono pliku konfiguracji dla aplikacji, nie znaleziono elementu usługi pasującego do nazwy usługi w pliku konfiguracji lub nie zdefiniowano punktów końcowych w elemencie usługi.
 started
 started
 started
 Usługa „QuickAI.ImportData.PrepareDataSet.Service.ObtainDataService” ma zerowe punkty końcowe aplikacji. Może to być spowodowane tym, że nie znaleziono pliku konfiguracji dla aplikacji, nie znaleziono elementu usługi pasującego do nazwy usługi w pliku konfiguracji lub nie zdefiniowano punktów końcowych w elemencie usługi.
 started
 Odwołanie do obiektu nie zostało ustawione na wystąpienie obiektu.
 Serwer zdalny zwrócił błąd: (429) Too Many Requests.
 Serwer zdalny zwrócił błąd: (429) Too Many Requests.
 Odwołanie do obiektu nie zostało ustawione na wystąpienie obiektu.
 Usługa „QuickAI.ImportData.PrepareDataSet.Service.ObtainDataService” ma zerowe punkty końcowe aplikacji. Może to być spowodowane tym, że nie znaleziono pliku konfiguracji dla aplikacji, nie znaleziono elementu usługi pasującego do nazwy usługi w pliku konfiguracji lub nie zdefiniowano punktów końcowych w elemencie usługi.
 Usługa „QuickAI.ImportData.PrepareDataSet.Service.ObtainDataService” ma zerowe punkty końcowe aplikacji. Może to być spowodowane tym, że nie znaleziono pliku konfiguracji dla aplikacji, nie znaleziono elementu usługi pasującego do nazwy usługi w pliku konfiguracji lub nie zdefiniowano punktów końcowych w elemencie usługi.
 started
 Usługa „QuickAI.ImportData.PrepareDataSet.Service.ObtainDataService” ma zerowe punkty końcowe aplikacji. Może to być spowodowane tym, że nie znaleziono pliku konfiguracji dla aplikacji, nie znaleziono elementu usługi pasującego do nazwy usługi w pliku konfiguracji lub nie zdefiniowano punktów końcowych w elemencie usługi.
 Serwer zdalny zwrócił błąd: (429) Too Many Requests.
 Serwer zdalny zwrócił błąd: (429) Too Many Requests.
 Odwołanie do obiektu nie zostało ustawione na wystąpienie obiektu.
 Usługa „QuickAI.ImportData.PrepareDataSet.Service.ObtainDataService” ma zerowe punkty końcowe aplikacji. Może to być spowodowane tym, że nie znaleziono pliku konfiguracji dla aplikacji, nie znaleziono elementu usługi pasującego do nazwy usługi w pliku konfiguracji lub nie zdefiniowano punktów końcowych w elemencie usługi.
 started
 Serwer zdalny zwrócił błąd: (429) Too Many Requests.
 Serwer zdalny zwrócił błąd: (429) Too Many Requests.
 Odwołanie do obiektu nie zostało ustawione na wystąpienie obiektu.
 Usługa „QuickAI.ImportData.PrepareDataSet.Service.ObtainDataService” ma zerowe punkty końcowe aplikacji. Może to być spowodowane tym, że nie znaleziono pliku konfiguracji dla aplikacji, nie znaleziono elementu usługi pasującego do nazwy usługi w pliku konfiguracji lub nie zdefiniowano punktów końcowych w elemencie usługi.
 Usługa „QuickAI.ImportData.PrepareDataSet.Service.ObtainDataService” ma zerowe punkty końcowe aplikacji. Może to być spowodowane tym, że nie znaleziono pliku konfiguracji dla aplikacji, nie znaleziono elementu usługi pasującego do nazwy usługi w pliku konfiguracji lub nie zdefiniowano punktów końcowych w elemencie usługi.
 started
 Usługa „QuickAI.ImportData.PrepareDataSet.Service.ObtainDataService” ma zerowe punkty końcowe aplikacji. Może to być spowodowane tym, że nie znaleziono pliku konfiguracji dla aplikacji, nie znaleziono elementu usługi pasującego do nazwy usługi w pliku konfiguracji lub nie zdefiniowano punktów końcowych w elemencie usługi.
 Usługa „QuickAI.ImportData.PrepareDataSet.Service.ObtainDataService” ma zerowe punkty końcowe aplikacji. Może to być spowodowane tym, że nie znaleziono pliku konfiguracji dla aplikacji, nie znaleziono elementu usługi pasującego do nazwy usługi w pliku konfiguracji lub nie zdefiniowano punktów końcowych w elemencie usługi.
 Usługa „QuickAI.ImportData.PrepareDataSet.Service.ObtainDataService” ma zerowe punkty końcowe aplikacji. Może to być spowodowane tym, że nie znaleziono pliku konfiguracji dla aplikacji, nie znaleziono elementu usługi pasującego do nazwy usługi w pliku konfiguracji lub nie zdefiniowano punktów końcowych w elemencie usługi.
 Usługa „QuickAI.ImportData.PrepareDataSet.Service.ObtainDataService” ma zerowe punkty końcowe aplikacji. Może to być spowodowane tym, że nie znaleziono pliku konfiguracji dla aplikacji, nie znaleziono elementu usługi pasującego do nazwy usługi w pliku konfiguracji lub nie zdefiniowano punktów końcowych w elemencie usługi.
 started
 started
 started
 started
 started
 Odwołanie do obiektu nie zostało ustawione na wystąpienie obiektu.
 Serwer zdalny zwrócił błąd: (429) Too Many Requests.
 Serwer zdalny zwrócił błąd: (429) Too Many Requests.
 Odwołanie do obiektu nie zostało ustawione na wystąpienie obiektu.
 started
 Odwołanie do obiektu nie zostało ustawione na wystąpienie obiektu.
 Serwer zdalny zwrócił błąd: (429) Too Many Requests.
 Serwer zdalny zwrócił błąd: (429) Too Many Requests.
 Odwołanie do obiektu nie zostało ustawione na wystąpienie obiektu.
 started
 Odwołanie do obiektu nie zostało ustawione na wystąpienie obiektu.
 Serwer zdalny zwrócił błąd: (429) Too Many Requests.
 Serwer zdalny zwrócił błąd: (429) Too Many Requests.
 Odwołanie do obiektu nie zostało ustawione na wystąpienie obiektu.
 started
 Odwołanie do obiektu nie zostało ustawione na wystąpienie obiektu.
 Serwer zdalny zwrócił błąd: (429) Too Many Requests.
 Serwer zdalny zwrócił błąd: (429) Too Many Requests.
 Odwołanie do obiektu nie zostało ustawione na wystąpienie obiektu.
 started
 Odwołanie do obiektu nie zostało ustawione na wystąpienie obiektu.
 Serwer zdalny zwrócił błąd: (429) Too Many Requests.
 Serwer zdalny zwrócił błąd: (429) Too Many Requests.
 Odwołanie do obiektu nie zostało ustawione na wystąpienie obiektu.
 started
 Odwołanie do obiektu nie zostało ustawione na wystąpienie obiektu.
 Serwer zdalny zwrócił błąd: (429) Too Many Requests.
 Serwer zdalny zwrócił błąd: (429) Too Many Requests.
 Odwołanie do obiektu nie zostało ustawione na wystąpienie obiektu.
 started
 Odwołanie do obiektu nie zostało ustawione na wystąpienie obiektu.
 Serwer zdalny zwrócił błąd: (429) Too Many Requests.
 Serwer zdalny zwrócił błąd: (429) Too Many Requests.
 Odwołanie do obiektu nie zostało ustawione na wystąpienie obiektu.
 started
 Odwołanie do obiektu nie zostało ustawione na wystąpienie obiektu.
 Serwer zdalny zwrócił błąd: (429) Too Many Requests.
 Serwer zdalny zwrócił błąd: (429) Too Many Requests.
 Odwołanie do obiektu nie zostało ustawione na wystąpienie obiektu.
 started
 Odwołanie do obiektu nie zostało ustawione na wystąpienie obiektu.
 Serwer zdalny zwrócił błąd: (429) Too Many Requests.
 Serwer zdalny zwrócił błąd: (429) Too Many Requests.
 Odwołanie do obiektu nie zostało ustawione na wystąpienie obiektu.
