19.12.2018 08:25:05 Start download for ticker AAPL and function TIME_SERIES_DAILY
19.12.2018 08:25:12 Download data
19.12.2018 08:25:14 Get response
19.12.2018 08:25:16 Returned value of output
19.12.2018 08:25:17 Call function CleanseData()
19.12.2018 08:25:17 Fill context value
19.12.2018 08:25:17 Start download for ticker SPY and function Time_Series_DAILY
19.12.2018 08:25:17 Download data
19.12.2018 08:25:17 Get response
19.12.2018 08:25:20 Returned value of output
19.12.2018 08:25:20 Call function CleanseData()
19.12.2018 08:25:20 Fill context value
19.12.2018 08:25:20 Start download for ticker SMA and function TIME_SERIES_DAILY
19.12.2018 08:25:20 Download data
19.12.2018 08:25:20 Get response
19.12.2018 08:25:21 Returned value of output
19.12.2018 08:25:21 Start download for ticker HT_TRENDLINE and function TIME_SERIES_DAILY
19.12.2018 08:25:21 Download data
19.12.2018 08:25:21 Get response
19.12.2018 08:25:22 Returned value of output
19.12.2018 08:25:22 Save to file AAPL
19.12.2018 08:25:22 Exception occured while running GetDataSet: 'C:/Projects/QuickAI.Final/QuickIA.ImportData.DataSet/QuickAI.ImportData.PrepareDataSet.Service/QuickAI.ImportData.PrepareDataSet.Service/Saves_content/' jest ścieżką fizyczną, ale oczekiwano ścieżki wirtualnej., 
